{
  "IcoMoonType": "selection",
  "icons": [
    {
      "icon": {
        "paths": [
          "M1002.132 314.242l-101.106-101.104c-24.792-24.794-65.37-65.368-90.162-90.164l-101.106-101.104c-24.792-24.794-68.954-29.166-98.13-9.716l-276.438 184.292c-29.176 19.452-40.218 61.028-24.536 92.39l70.486 140.974c2.154 4.306 4.646 8.896 7.39 13.66l-356.53 356.53-32 224h192v-64h128v-128h128v-128h128v-71.186c6.396 3.812 12.534 7.216 18.192 10.044l140.97 70.488c31.366 15.682 72.94 4.638 92.39-24.538l184.294-276.44c19.454-29.172 15.078-73.33-9.714-98.126zM150.628 854.626l-45.254-45.254 311.572-311.57 45.254 45.254-311.572 311.57zM917.020 423.764l-45.256 45.256c-12.446 12.444-32.808 12.444-45.254 0l-271.53-271.53c-12.446-12.444-12.446-32.81 0-45.254l45.256-45.256c12.446-12.444 32.808-12.444 45.254 0l271.53 271.53c12.446 12.444 12.446 32.81 0 45.254z"
        ],
        "attrs": [
          {}
        ],
        "isMulticolor": false,
        "isMulticolor2": false,
        "tags": [
          "key",
          "password",
          "login",
          "signin"
        ],
        "grid": 16
      },
      "attrs": [
        {}
      ],
      "properties": {
        "order": 1,
        "id": 0,
        "prevSize": 32,
        "code": 59665,
        "name": "key"
      },
      "setIdx": 0,
      "setId": 14,
      "iconIdx": 0
    },
    {
      "icon": {
        "paths": [
          "M939.992 766.052v-272.926h34.997c8.292 0 9.758-4.196 3.273-9.357l-245.599-194.58c-6.485-5.14-17.107-5.14-23.592 0l-82.583 65.436 53.409 42.305c22.147 17.569 24.074 40.88 18.512 56.882-5.441 15.661-20.942 32.387-48.148 33.049v279.211h-45.176v-324.367h43.51c8.272 0 9.738-4.196 3.253-9.357l-291.258-230.781c-6.485-5.14-17.127-5.14-23.612 0l-291.238 230.781c-6.485 5.14-5.020 9.357 3.253 9.357h43.51v324.367h-66.941v60.235h972.86v-60.235h-58.428zM817.011 540.752h54.593v80.354h-54.593v-80.354zM702.203 540.752h54.573v80.354h-54.573v-80.354zM277.745 594.040h142.075v172.012h-142.075v-172.012z"
        ],
        "attrs": [
          {}
        ],
        "isMulticolor": false,
        "isMulticolor2": false,
        "grid": 0,
        "tags": [
          "iconfinder_building-02_4538525"
        ]
      },
      "attrs": [
        {}
      ],
      "properties": {
        "order": 124,
        "id": 0,
        "name": "neighborhood",
        "prevSize": 32,
        "code": 59651
      },
      "setIdx": 1,
      "setId": 13,
      "iconIdx": 0
    },
    {
      "icon": {
        "paths": [
          "M633.508 666.173c-0.532-5.878-0.922-15.319-1.229-25.108 88.986-9.114 151.409-30.454 151.409-55.316-0.246-0.041-0.225-1.024-0.225-1.434-66.519-59.945 57.672-485.949-173.527-477.307-14.52-12.288-39.936-23.204-76.39-23.204-313.16 23.695-174.694 425.984-246.047 501.924-0.041 0.020-0.102 0.020-0.143 0.020 0 0.041 0.020 0.082 0.020 0.123 0 0.020-0.020 0.041-0.020 0.041s0.020 0 0.041 0.020c0.287 24.351 60.6 45.302 147.005 54.641-0.246 5.939-0.758 13.292-1.884 25.6-35.881 96.461-277.975 69.386-289.157 255.427h778.24c-11.162-186.040-252.211-158.966-288.092-255.427z"
        ],
        "attrs": [
          {}
        ],
        "isMulticolor": false,
        "isMulticolor2": false,
        "grid": 0,
        "tags": [
          "iconfinder_user_female_172621"
        ]
      },
      "attrs": [
        {}
      ],
      "properties": {
        "order": 68,
        "id": 7,
        "name": "female",
        "prevSize": 32,
        "code": 59655
      },
      "setIdx": 2,
      "setId": 12,
      "iconIdx": 1
    },
    {
      "icon": {
        "paths": [
          "M633.508 666.173c-2.99-33.014-1.843-56.054-1.843-86.221 14.95-7.844 41.738-57.856 46.264-100.106 11.756-0.963 30.29-12.431 35.717-57.713 2.929-24.31-8.704-37.99-15.79-42.291 19.128-57.528 58.86-235.5-73.482-253.891-13.619-23.921-48.497-36.024-93.819-36.024-181.33 3.338-203.203 136.929-163.451 289.915-7.066 4.301-18.698 17.981-15.79 42.291 5.448 45.281 23.962 56.75 35.717 57.713 4.506 42.23 32.358 92.262 47.35 100.106 0 30.167 1.126 53.207-1.864 86.221-35.881 96.461-277.975 69.386-289.157 255.427h778.24c-11.162-186.040-252.211-158.966-288.092-255.427z"
        ],
        "attrs": [
          {}
        ],
        "isMulticolor": false,
        "isMulticolor2": false,
        "grid": 0,
        "tags": [
          "iconfinder_user_male_172625"
        ]
      },
      "attrs": [
        {}
      ],
      "properties": {
        "order": 70,
        "id": 3,
        "name": "user, person, male",
        "prevSize": 32,
        "code": 59663
      },
      "setIdx": 2,
      "setId": 12,
      "iconIdx": 5
    },
    {
      "icon": {
        "paths": [
          "M128 768h639.875v-512h-639.875v512zM255.938 384h384v256h-384v-256zM64 192.062h191.938v-64h-255.938v255.938h64v-191.938zM64 640h-64v255.938h255.938v-63.938h-191.938v-192zM639.938 128.062v64h191.938v191.938h64v-255.938h-255.938zM831.875 832h-191.937v63.938h255.938v-255.938h-64v192z"
        ],
        "attrs": [
          {}
        ],
        "width": 895.875,
        "isMulticolor": false,
        "isMulticolor2": false,
        "grid": 0,
        "tags": [
          "screen-full"
        ]
      },
      "attrs": [
        {}
      ],
      "properties": {
        "order": 56,
        "id": 0,
        "name": "screen-full",
        "prevSize": 32,
        "code": 59652
      },
      "setIdx": 3,
      "setId": 11,
      "iconIdx": 0
    },
    {
      "icon": {
        "paths": [
          "M864 96v832c0 17.673-14.327 32-32 32v0h-640c-17.673 0-32-14.327-32-32v0-64h64v32h576v-768h-576v96h-64v-128c0-17.673 14.327-32 32-32v0h640c17.673 0 32 14.327 32 32v0zM342.72 649.28l-105.6-105.28h338.88v-64h-338.88l105.6-105.28-45.44-45.44-160 160c-5.846 5.8-9.466 13.837-9.466 22.72s3.619 16.92 9.463 22.718l0.002 0.002 160 160z"
        ],
        "attrs": [
          {}
        ],
        "isMulticolor": false,
        "isMulticolor2": false,
        "grid": 0,
        "tags": [
          "iconfinder_logout_account_exit_door_3005766"
        ]
      },
      "attrs": [
        {}
      ],
      "properties": {
        "order": 75,
        "id": 6,
        "name": "logout",
        "prevSize": 32,
        "code": 59658
      },
      "setIdx": 4,
      "setId": 10,
      "iconIdx": 1
    },
    {
      "icon": {
        "paths": [
          "M864 96v832c0 17.673-14.327 32-32 32v0h-640c-17.673 0-32-14.327-32-32v0-64h64v32h576v-768h-576v96h-64v-128c0-17.673 14.327-32 32-32v0h640c17.673 0 32 14.327 32 32v0zM393.28 649.28l45.44 45.44 160-160c5.846-5.8 9.466-13.837 9.466-22.72s-3.619-16.92-9.463-22.718l-0.002-0.002-160-160-45.44 45.44 105.6 105.28h-338.88v64h338.88z"
        ],
        "attrs": [
          {}
        ],
        "isMulticolor": false,
        "isMulticolor2": false,
        "grid": 0,
        "tags": [
          "iconfinder_login_account_enter_door_3005767"
        ]
      },
      "attrs": [
        {}
      ],
      "properties": {
        "order": 74,
        "id": 5,
        "name": "login",
        "prevSize": 32,
        "code": 59654
      },
      "setIdx": 4,
      "setId": 10,
      "iconIdx": 2
    },
    {
      "icon": {
        "paths": [
          "M155.264 523.328l215.072-215.040c21.472-21.504 21.472-56.32 0-77.824-21.504-21.504-56.32-21.504-77.824 0l-253.12 253.12c-11.008 10.944-16.32 25.376-16.128 39.68-0.192 14.336 5.12 28.672 16.128 39.648l253.12 253.12c21.44 21.472 56.32 21.472 77.824 0 21.536-21.504 21.472-56.32 0-77.824l-215.072-214.88z",
          "M984.64 472.352l-253.12-253.12c-21.504-21.504-56.32-21.504-77.856 0-21.504 21.44-21.504 56.32 0 77.76l215.040 215.008-215.040 215.072c-21.504 21.472-21.504 56.288 0 77.792 21.44 21.504 56.288 21.504 77.856 0l253.12-253.12c10.944-10.944 16.32-25.312 16.128-39.68 0.096-14.4-5.28-28.768-16.128-39.712z",
          "M519.68 832.16c-5.376 32.704-36.192 54.88-68.928 49.504v0c-32.672-5.376-54.816-36.288-49.44-68.928l102.016-620.928c5.376-32.672 36.256-54.816 68.896-49.44v0c32.672 5.376 54.816 36.192 49.44 68.928l-101.984 620.864z"
        ],
        "attrs": [
          {},
          {},
          {}
        ],
        "isMulticolor": false,
        "isMulticolor2": false,
        "grid": 0,
        "tags": [
          "code"
        ]
      },
      "attrs": [
        {},
        {},
        {}
      ],
      "properties": {
        "order": 55,
        "id": 0,
        "name": "code",
        "prevSize": 32,
        "code": 59653
      },
      "setIdx": 4,
      "setId": 10,
      "iconIdx": 7
    },
    {
      "icon": {
        "paths": [
          "M-3.352 1007.534l251.889-207.434v-424.391l-251.889 207.441v424.384zM506.935 578.968l-246.832-203.258v424.391l246.832 203.265v-424.398zM588.317 175.031c0 43.797-35.489 79.293-79.286 79.293-43.79 0-79.286-35.503-79.286-79.293s35.496-79.293 79.286-79.293c43.79 0.007 79.286 35.51 79.286 79.293zM649.302 254.324c13.503-23.336 21.263-50.394 21.263-79.293 0-87.573-70.992-158.565-158.558-158.565-87.58 0-158.572 70.992-158.572 158.565 0 38.516 13.727 73.802 36.565 101.279l122.144 176.215 123.907-178.78c4.458-5.578 8.54-11.451 12.217-17.614l1.257-1.806h-0.224zM518.791 1001.935l242.981-200.086v-424.376l-242.981 200.094v424.369zM1027.352 1007.534v-424.384l-254.887-209.883v424.376l254.887 209.891z"
        ],
        "attrs": [
          {}
        ],
        "isMulticolor": false,
        "isMulticolor2": false,
        "grid": 0,
        "tags": [
          "iconfinder_93_171452"
        ]
      },
      "attrs": [
        {}
      ],
      "properties": {
        "order": 51,
        "id": 0,
        "name": "map",
        "prevSize": 32,
        "code": 59650
      },
      "setIdx": 6,
      "setId": 8,
      "iconIdx": 0
    },
    {
      "icon": {
        "paths": [
          "M213.333 170.667v85.333h597.333v-85.333h-597.333zM213.333 597.333h170.667v256h256v-256h170.667l-298.667-298.667-298.667 298.667z"
        ],
        "attrs": [
          {}
        ],
        "isMulticolor": false,
        "isMulticolor2": false,
        "grid": 0,
        "tags": [
          "iconfinder_ic_publish_48px_352080"
        ]
      },
      "attrs": [
        {}
      ],
      "properties": {
        "order": 50,
        "id": 0,
        "name": "publish",
        "prevSize": 32,
        "code": 59649
      },
      "setIdx": 7,
      "setId": 7,
      "iconIdx": 0
    },
    {
      "icon": {
        "paths": [
          "M805.295 541.124v45.315c0.069 3.912 3.218 7.061 7.121 7.131h86.288v50.398h-86.281c-3.939 0-7.131 3.192-7.131 7.131v0 45.315c0.069 3.912 3.218 7.061 7.121 7.131h86.288v50.155h-86.281c-3.958 0.069-7.131 3.288-7.131 7.246 0 0 0 0.002 0 0.002v0 45.315c0.069 3.912 3.218 7.061 7.121 7.131h86.288v68.766h-162.664v-521.341l162.664 133.784v39.394h-86.281c-3.939 0-7.131 3.192-7.131 7.131v0zM256.286 473.687h-131.006v60.425h55.225c0.032-0.002 0.073-0.002 0.116-0.002 3.939 0 7.131 3.192 7.131 7.131 0 0 0 0.002 0 0.002v0 45.315c-0.069 3.958-3.288 7.131-7.246 7.131 0 0-0.002 0-0.002 0h-55.225v50.398h55.225c0.032-0.002 0.073-0.002 0.116-0.002 3.939 0 7.131 3.192 7.131 7.131 0 0 0 0.002 0 0.002v0 45.315c-0.069 3.958-3.288 7.131-7.246 7.131 0 0-0.002 0-0.002 0h-55.225v50.027h55.225c4.005 0 7.246 3.248 7.246 7.246v0 45.315c-0.069 3.958-3.288 7.131-7.246 7.131 0 0-0.002 0-0.002 0h-55.225v68.766h131.006zM687.716 882.284h-383.090v-716.63c0-13.353 10.817-24.17 24.17-24.17v0h334.995c13.353 0 24.17 10.817 24.17 24.17v0 716.63zM461.485 669.71c0 0 0 0 0 0 0-7.877-6.383-14.26-14.26-14.26-0.041 0-0.082 0-0.124 0h-55.952c-0.032 0-0.073 0-0.116 0-7.877 0-14.26 6.383-14.26 14.26 0 0 0 0 0 0v0 56.319c0 7.94 6.44 14.376 14.376 14.376v0h56.19c7.94 0 14.376-6.44 14.376-14.376v0zM461.485 530.006c0-7.94-6.44-14.376-14.376-14.376v0h-55.954c-7.94 0-14.376 6.44-14.376 14.376v0 56.19c0 7.94 6.44 14.376 14.376 14.376v0h56.19c7.94 0 14.376-6.44 14.376-14.376v0zM461.485 390.185c0-7.94-6.44-14.376-14.376-14.376v0h-55.954c-7.94 0-14.376 6.44-14.376 14.376v0 56.319c0 7.94 6.44 14.376 14.376 14.376v0h56.19c7.94 0 14.376-6.44 14.376-14.376v0zM461.485 250.365c0 0 0 0 0 0 0-7.877-6.383-14.26-14.26-14.26-0.041 0-0.082 0-0.124 0h-55.952c-0.032 0-0.073 0-0.116 0-7.877 0-14.26 6.383-14.26 14.26 0 0 0 0 0 0v0 56.19c0 0.032 0 0.073 0 0.116 0 7.94 6.44 14.376 14.376 14.376 0 0 0 0 0 0h56.19c7.842-0.135 14.145-6.519 14.145-14.376 0-0.043 0-0.084 0-0.127v0.009zM615.925 669.71c-0.069-7.894-6.48-14.26-14.376-14.26 0 0 0 0 0 0h-56.319c-0.032 0-0.073 0-0.116 0-7.877 0-14.26 6.383-14.26 14.26 0 0 0 0 0 0v0 56.319c0 7.94 6.44 14.376 14.376 14.376v0h56.319c7.94 0 14.376-6.44 14.376-14.376v0zM615.925 530.006c0-7.94-6.44-14.376-14.376-14.376v0h-56.319c-7.94 0-14.376 6.44-14.376 14.376v0 56.19c0 7.94 6.44 14.376 14.376 14.376v0h56.319c7.94 0 14.376-6.44 14.376-14.376v0zM615.925 390.185c0-7.94-6.44-14.376-14.376-14.376v0h-56.319c-7.94 0-14.376 6.44-14.376 14.376v0 56.319c0 7.94 6.44 14.376 14.376 14.376v0h56.319c7.915-0.069 14.315-6.461 14.376-14.376v-0.008zM615.925 250.365c-0.069-7.894-6.48-14.26-14.376-14.26 0 0 0 0 0 0h-56.319c-0.032 0-0.073 0-0.116 0-7.877 0-14.26 6.383-14.26 14.26 0 0 0 0 0 0v0 56.19c0 7.94 6.44 14.376 14.376 14.376v0h56.319c7.94 0 14.376-6.44 14.376-14.376v0z"
        ],
        "attrs": [
          {}
        ],
        "isMulticolor": false,
        "isMulticolor2": false,
        "grid": 0,
        "tags": [
          "iconfinder_city_7_3078502"
        ]
      },
      "attrs": [
        {}
      ],
      "properties": {
        "order": 41,
        "id": 0,
        "name": "city, town",
        "prevSize": 32,
        "code": 59648
      },
      "setIdx": 8,
      "setId": 6,
      "iconIdx": 0
    },
    {
      "icon": {
        "paths": [
          "M730.255 392.654h-138.085v-90.564c0-34.011 22.542-41.94 38.418-41.94 15.841 0 97.446 0 97.446 0v-149.519l-134.202-0.524c-148.977 0-182.88 111.516-182.88 182.88v99.667h-86.157v154.071h86.157c0 197.727 0 435.967 0 435.967h181.218c0 0 0-240.588 0-435.967h122.281l15.804-154.071z"
        ],
        "attrs": [
          {}
        ],
        "isMulticolor": false,
        "isMulticolor2": false,
        "grid": 0,
        "tags": [
          "iconfinder_06-facebook_104498"
        ]
      },
      "attrs": [
        {}
      ],
      "properties": {
        "order": 40,
        "id": 0,
        "name": "facebook",
        "prevSize": 32,
        "code": 59662
      },
      "setIdx": 9,
      "setId": 5,
      "iconIdx": 0
    },
    {
      "icon": {
        "paths": [
          "M292.571 420.571v329.143c0 10.286-8 18.286-18.286 18.286h-36.571c-10.286 0-18.286-8-18.286-18.286v-329.143c0-10.286 8-18.286 18.286-18.286h36.571c10.286 0 18.286 8 18.286 18.286zM438.857 420.571v329.143c0 10.286-8 18.286-18.286 18.286h-36.571c-10.286 0-18.286-8-18.286-18.286v-329.143c0-10.286 8-18.286 18.286-18.286h36.571c10.286 0 18.286 8 18.286 18.286zM585.143 420.571v329.143c0 10.286-8 18.286-18.286 18.286h-36.571c-10.286 0-18.286-8-18.286-18.286v-329.143c0-10.286 8-18.286 18.286-18.286h36.571c10.286 0 18.286 8 18.286 18.286zM658.286 834.286v-541.714h-512v541.714c0 27.429 15.429 43.429 18.286 43.429h475.429c2.857 0 18.286-16 18.286-43.429zM274.286 219.429h256l-27.429-66.857c-1.714-2.286-6.857-5.714-9.714-6.286h-181.143c-3.429 0.571-8 4-9.714 6.286zM804.571 237.714v36.571c0 10.286-8 18.286-18.286 18.286h-54.857v541.714c0 62.857-41.143 116.571-91.429 116.571h-475.429c-50.286 0-91.429-51.429-91.429-114.286v-544h-54.857c-10.286 0-18.286-8-18.286-18.286v-36.571c0-10.286 8-18.286 18.286-18.286h176.571l40-95.429c11.429-28 45.714-50.857 76-50.857h182.857c30.286 0 64.571 22.857 76 50.857l40 95.429h176.571c10.286 0 18.286 8 18.286 18.286z"
        ],
        "width": 804.5714285714286,
        "attrs": [],
        "isMulticolor": false,
        "isMulticolor2": false,
        "tags": [
          "trash-o"
        ],
        "defaultCode": 61460,
        "grid": 14
      },
      "attrs": [],
      "properties": {
        "name": "trash-o, delete",
        "id": 23,
        "order": 52,
        "prevSize": 28,
        "code": 61460
      },
      "setIdx": 11,
      "setId": 3,
      "iconIdx": 23
    },
    {
      "icon": {
        "paths": [
          "M838.857 217.143c21.143 21.143 38.857 63.429 38.857 93.714v658.286c0 30.286-24.571 54.857-54.857 54.857h-768c-30.286 0-54.857-24.571-54.857-54.857v-914.286c0-30.286 24.571-54.857 54.857-54.857h512c30.286 0 72.571 17.714 93.714 38.857zM585.143 77.714v214.857h214.857c-3.429-9.714-8.571-19.429-12.571-23.429l-178.857-178.857c-4-4-13.714-9.143-23.429-12.571zM804.571 950.857v-585.143h-237.714c-30.286 0-54.857-24.571-54.857-54.857v-237.714h-438.857v877.714h731.429z"
        ],
        "width": 877.7142857142857,
        "attrs": [],
        "isMulticolor": false,
        "isMulticolor2": false,
        "tags": [
          "file-o"
        ],
        "defaultCode": 61462,
        "grid": 14
      },
      "attrs": [],
      "properties": {
        "name": "file-o",
        "id": 25,
        "order": 77,
        "prevSize": 28,
        "code": 61462
      },
      "setIdx": 11,
      "setId": 3,
      "iconIdx": 25
    },
    {
      "icon": {
        "paths": [
          "M365.714 329.143c0 60.571-49.143 109.714-109.714 109.714s-109.714-49.143-109.714-109.714 49.143-109.714 109.714-109.714 109.714 49.143 109.714 109.714zM950.857 548.571v256h-804.571v-109.714l182.857-182.857 91.429 91.429 292.571-292.571zM1005.714 146.286h-914.286c-9.714 0-18.286 8.571-18.286 18.286v694.857c0 9.714 8.571 18.286 18.286 18.286h914.286c9.714 0 18.286-8.571 18.286-18.286v-694.857c0-9.714-8.571-18.286-18.286-18.286zM1097.143 164.571v694.857c0 50.286-41.143 91.429-91.429 91.429h-914.286c-50.286 0-91.429-41.143-91.429-91.429v-694.857c0-50.286 41.143-91.429 91.429-91.429h914.286c50.286 0 91.429 41.143 91.429 91.429z"
        ],
        "width": 1097.142857142857,
        "attrs": [],
        "isMulticolor": false,
        "isMulticolor2": false,
        "tags": [
          "image",
          "photo",
          "picture-o"
        ],
        "defaultCode": 61502,
        "grid": 14
      },
      "attrs": [],
      "properties": {
        "name": "image, photo, picture-o",
        "id": 63,
        "order": 21,
        "prevSize": 28,
        "code": 61502
      },
      "setIdx": 11,
      "setId": 3,
      "iconIdx": 63
    },
    {
      "icon": {
        "paths": [
          "M207.429 877.714l52-52-134.286-134.286-52 52v61.143h73.143v73.143h61.143zM506.286 347.429c0-7.429-5.143-12.571-12.571-12.571-3.429 0-6.857 1.143-9.714 4l-309.714 309.714c-2.857 2.857-4 6.286-4 9.714 0 7.429 5.143 12.571 12.571 12.571 3.429 0 6.857-1.143 9.714-4l309.714-309.714c2.857-2.857 4-6.286 4-9.714zM475.429 237.714l237.714 237.714-475.429 475.429h-237.714v-237.714zM865.714 292.571c0 19.429-8 38.286-21.143 51.429l-94.857 94.857-237.714-237.714 94.857-94.286c13.143-13.714 32-21.714 51.429-21.714s38.286 8 52 21.714l134.286 133.714c13.143 13.714 21.143 32.571 21.143 52z"
        ],
        "width": 865.7188571428571,
        "attrs": [],
        "isMulticolor": false,
        "isMulticolor2": false,
        "tags": [
          "pencil"
        ],
        "defaultCode": 61504,
        "grid": 14
      },
      "attrs": [],
      "properties": {
        "name": "edit",
        "id": 64,
        "order": 53,
        "prevSize": 28,
        "code": 61504
      },
      "setIdx": 11,
      "setId": 3,
      "iconIdx": 64
    },
    {
      "icon": {
        "paths": [
          "M790.857 529.714l-758.857 421.714c-17.714 9.714-32 1.143-32-18.857v-841.143c0-20 14.286-28.571 32-18.857l758.857 421.714c17.714 9.714 17.714 25.714 0 35.429z"
        ],
        "width": 808.5942857142857,
        "attrs": [],
        "isMulticolor": false,
        "isMulticolor2": false,
        "tags": [
          "play"
        ],
        "defaultCode": 61515,
        "grid": 14
      },
      "attrs": [],
      "properties": {
        "name": "play",
        "id": 75,
        "order": 57,
        "prevSize": 28,
        "code": 61515
      },
      "setIdx": 11,
      "setId": 3,
      "iconIdx": 75
    },
    {
      "icon": {
        "paths": [
          "M669.143 172l-303.429 303.429 303.429 303.429c14.286 14.286 14.286 37.143 0 51.429l-94.857 94.857c-14.286 14.286-37.143 14.286-51.429 0l-424-424c-14.286-14.286-14.286-37.143 0-51.429l424-424c14.286-14.286 37.143-14.286 51.429 0l94.857 94.857c14.286 14.286 14.286 37.143 0 51.429z"
        ],
        "width": 768,
        "attrs": [],
        "isMulticolor": false,
        "isMulticolor2": false,
        "tags": [
          "chevron-left"
        ],
        "defaultCode": 61523,
        "grid": 14
      },
      "attrs": [],
      "properties": {
        "name": "chevron-left",
        "id": 82,
        "order": 31,
        "prevSize": 28,
        "code": 61523
      },
      "setIdx": 11,
      "setId": 3,
      "iconIdx": 82
    },
    {
      "icon": {
        "paths": [
          "M632.571 501.143l-424 424c-14.286 14.286-37.143 14.286-51.429 0l-94.857-94.857c-14.286-14.286-14.286-37.143 0-51.429l303.429-303.429-303.429-303.429c-14.286-14.286-14.286-37.143 0-51.429l94.857-94.857c14.286-14.286 37.143-14.286 51.429 0l424 424c14.286 14.286 14.286 37.143 0 51.429z"
        ],
        "width": 694.8571428571428,
        "attrs": [],
        "isMulticolor": false,
        "isMulticolor2": false,
        "tags": [
          "chevron-right"
        ],
        "defaultCode": 61524,
        "grid": 14
      },
      "attrs": [],
      "properties": {
        "name": "chevron-right",
        "id": 83,
        "order": 32,
        "prevSize": 28,
        "code": 61524
      },
      "setIdx": 11,
      "setId": 3,
      "iconIdx": 83
    },
    {
      "icon": {
        "paths": [
          "M73.143 950.857h164.571v-164.571h-164.571v164.571zM274.286 950.857h182.857v-164.571h-182.857v164.571zM73.143 749.714h164.571v-182.857h-164.571v182.857zM274.286 749.714h182.857v-182.857h-182.857v182.857zM73.143 530.286h164.571v-164.571h-164.571v164.571zM493.714 950.857h182.857v-164.571h-182.857v164.571zM274.286 530.286h182.857v-164.571h-182.857v164.571zM713.143 950.857h164.571v-164.571h-164.571v164.571zM493.714 749.714h182.857v-182.857h-182.857v182.857zM292.571 256v-164.571c0-9.714-8.571-18.286-18.286-18.286h-36.571c-9.714 0-18.286 8.571-18.286 18.286v164.571c0 9.714 8.571 18.286 18.286 18.286h36.571c9.714 0 18.286-8.571 18.286-18.286zM713.143 749.714h164.571v-182.857h-164.571v182.857zM493.714 530.286h182.857v-164.571h-182.857v164.571zM713.143 530.286h164.571v-164.571h-164.571v164.571zM731.429 256v-164.571c0-9.714-8.571-18.286-18.286-18.286h-36.571c-9.714 0-18.286 8.571-18.286 18.286v164.571c0 9.714 8.571 18.286 18.286 18.286h36.571c9.714 0 18.286-8.571 18.286-18.286zM950.857 219.429v731.429c0 40-33.143 73.143-73.143 73.143h-804.571c-40 0-73.143-33.143-73.143-73.143v-731.429c0-40 33.143-73.143 73.143-73.143h73.143v-54.857c0-50.286 41.143-91.429 91.429-91.429h36.571c50.286 0 91.429 41.143 91.429 91.429v54.857h219.429v-54.857c0-50.286 41.143-91.429 91.429-91.429h36.571c50.286 0 91.429 41.143 91.429 91.429v54.857h73.143c40 0 73.143 33.143 73.143 73.143z"
        ],
        "width": 950.8571428571428,
        "attrs": [],
        "isMulticolor": false,
        "isMulticolor2": false,
        "tags": [
          "calendar"
        ],
        "defaultCode": 61555,
        "grid": 14
      },
      "attrs": [],
      "properties": {
        "name": "calendar",
        "id": 109,
        "order": 9,
        "prevSize": 28,
        "code": 61555
      },
      "setIdx": 11,
      "setId": 3,
      "iconIdx": 109
    },
    {
      "icon": {
        "paths": [
          "M961.714 760.571l-94.857 94.286c-14.286 14.286-37.143 14.286-51.429 0l-303.429-303.429-303.429 303.429c-14.286 14.286-37.143 14.286-51.429 0l-94.857-94.286c-14.286-14.286-14.286-37.714 0-52l424-423.429c14.286-14.286 37.143-14.286 51.429 0l424 423.429c14.286 14.286 14.286 37.714 0 52z"
        ],
        "width": 1024,
        "attrs": [],
        "isMulticolor": false,
        "isMulticolor2": false,
        "tags": [
          "chevron-up"
        ],
        "defaultCode": 61559,
        "grid": 14
      },
      "attrs": [],
      "properties": {
        "name": "chevron-up",
        "id": 113,
        "order": 30,
        "prevSize": 28,
        "code": 61559
      },
      "setIdx": 11,
      "setId": 3,
      "iconIdx": 113
    },
    {
      "icon": {
        "paths": [
          "M961.714 461.714l-424 423.429c-14.286 14.286-37.143 14.286-51.429 0l-424-423.429c-14.286-14.286-14.286-37.714 0-52l94.857-94.286c14.286-14.286 37.143-14.286 51.429 0l303.429 303.429 303.429-303.429c14.286-14.286 37.143-14.286 51.429 0l94.857 94.286c14.286 14.286 14.286 37.714 0 52z"
        ],
        "width": 1024,
        "attrs": [],
        "isMulticolor": false,
        "isMulticolor2": false,
        "tags": [
          "chevron-down"
        ],
        "defaultCode": 61560,
        "grid": 14
      },
      "attrs": [],
      "properties": {
        "name": "chevron-down",
        "id": 114,
        "order": 29,
        "prevSize": 28,
        "code": 61560
      },
      "setIdx": 11,
      "setId": 3,
      "iconIdx": 114
    },
    {
      "icon": {
        "paths": [
          "M640 146.286h-475.429c-50.286 0-91.429 41.143-91.429 91.429v475.429c0 50.286 41.143 91.429 91.429 91.429h475.429c50.286 0 91.429-41.143 91.429-91.429v-475.429c0-50.286-41.143-91.429-91.429-91.429zM804.571 237.714v475.429c0 90.857-73.714 164.571-164.571 164.571h-475.429c-90.857 0-164.571-73.714-164.571-164.571v-475.429c0-90.857 73.714-164.571 164.571-164.571h475.429c90.857 0 164.571 73.714 164.571 164.571z"
        ],
        "width": 804.5714285714286,
        "attrs": [],
        "isMulticolor": false,
        "isMulticolor2": false,
        "tags": [
          "square-o"
        ],
        "defaultCode": 61590,
        "grid": 14
      },
      "attrs": [],
      "properties": {
        "name": "square-o",
        "id": 142,
        "order": 92,
        "prevSize": 28,
        "code": 61590
      },
      "setIdx": 11,
      "setId": 3,
      "iconIdx": 142
    },
    {
      "icon": {
        "paths": [
          "M969.143 219.429c30.286 0 54.857 24.571 54.857 54.857v694.857c0 30.286-24.571 54.857-54.857 54.857h-548.571c-30.286 0-54.857-24.571-54.857-54.857v-164.571h-310.857c-30.286 0-54.857-24.571-54.857-54.857v-384c0-30.286 17.714-72.571 38.857-93.714l233.143-233.143c21.143-21.143 63.429-38.857 93.714-38.857h237.714c30.286 0 54.857 24.571 54.857 54.857v187.429c22.286-13.143 50.857-22.857 73.143-22.857h237.714zM658.286 341.143l-170.857 170.857h170.857v-170.857zM292.571 121.714l-170.857 170.857h170.857v-170.857zM404.571 491.429l180.571-180.571v-237.714h-219.429v237.714c0 30.286-24.571 54.857-54.857 54.857h-237.714v365.714h292.571v-146.286c0-30.286 17.714-72.571 38.857-93.714zM950.857 950.857v-658.286h-219.429v237.714c0 30.286-24.571 54.857-54.857 54.857h-237.714v365.714h512z"
        ],
        "width": 1024,
        "attrs": [],
        "isMulticolor": false,
        "isMulticolor2": false,
        "tags": [
          "copy",
          "files-o"
        ],
        "defaultCode": 61637,
        "grid": 14
      },
      "attrs": [],
      "properties": {
        "name": "copy, files-o",
        "id": 174,
        "order": 88,
        "prevSize": 28,
        "code": 61637
      },
      "setIdx": 11,
      "setId": 3,
      "iconIdx": 174
    },
    {
      "icon": {
        "paths": [
          "M877.714 237.714v548.571c0 90.857-73.714 164.571-164.571 164.571h-548.571c-90.857 0-164.571-73.714-164.571-164.571v-548.571c0-90.857 73.714-164.571 164.571-164.571h548.571c90.857 0 164.571 73.714 164.571 164.571z"
        ],
        "width": 877.7142857142857,
        "attrs": [],
        "isMulticolor": false,
        "isMulticolor2": false,
        "tags": [
          "square"
        ],
        "defaultCode": 61640,
        "grid": 14
      },
      "attrs": [],
      "properties": {
        "name": "square",
        "id": 177,
        "order": 91,
        "prevSize": 28,
        "code": 61640
      },
      "setIdx": 11,
      "setId": 3,
      "iconIdx": 177
    },
    {
      "icon": {
        "paths": [
          "M838.857 217.143c21.143 21.143 38.857 63.429 38.857 93.714v658.286c0 30.286-24.571 54.857-54.857 54.857h-768c-30.286 0-54.857-24.571-54.857-54.857v-914.286c0-30.286 24.571-54.857 54.857-54.857h512c30.286 0 72.571 17.714 93.714 38.857zM585.143 77.714v214.857h214.857c-3.429-9.714-8.571-19.429-12.571-23.429l-178.857-178.857c-4-4-13.714-9.143-23.429-12.571zM804.571 950.857v-585.143h-237.714c-30.286 0-54.857-24.571-54.857-54.857v-237.714h-438.857v877.714h731.429zM219.429 457.143c0-10.286 8-18.286 18.286-18.286h402.286c10.286 0 18.286 8 18.286 18.286v36.571c0 10.286-8 18.286-18.286 18.286h-402.286c-10.286 0-18.286-8-18.286-18.286v-36.571zM640 585.143c10.286 0 18.286 8 18.286 18.286v36.571c0 10.286-8 18.286-18.286 18.286h-402.286c-10.286 0-18.286-8-18.286-18.286v-36.571c0-10.286 8-18.286 18.286-18.286h402.286zM640 731.429c10.286 0 18.286 8 18.286 18.286v36.571c0 10.286-8 18.286-18.286 18.286h-402.286c-10.286 0-18.286-8-18.286-18.286v-36.571c0-10.286 8-18.286 18.286-18.286h402.286z"
        ],
        "width": 877.7142857142857,
        "attrs": [],
        "isMulticolor": false,
        "isMulticolor2": false,
        "tags": [
          "file-text-o"
        ],
        "defaultCode": 61686,
        "grid": 14
      },
      "attrs": [],
      "properties": {
        "name": "file-text-o",
        "id": 220,
        "order": 78,
        "prevSize": 28,
        "code": 61686
      },
      "setIdx": 11,
      "setId": 3,
      "iconIdx": 220
    },
    {
      "icon": {
        "paths": [
          "M219.429 749.714v36.571c0 9.714-8.571 18.286-18.286 18.286h-36.571c-9.714 0-18.286-8.571-18.286-18.286v-36.571c0-9.714 8.571-18.286 18.286-18.286h36.571c9.714 0 18.286 8.571 18.286 18.286zM219.429 603.429v36.571c0 9.714-8.571 18.286-18.286 18.286h-36.571c-9.714 0-18.286-8.571-18.286-18.286v-36.571c0-9.714 8.571-18.286 18.286-18.286h36.571c9.714 0 18.286 8.571 18.286 18.286zM365.714 603.429v36.571c0 9.714-8.571 18.286-18.286 18.286h-36.571c-9.714 0-18.286-8.571-18.286-18.286v-36.571c0-9.714 8.571-18.286 18.286-18.286h36.571c9.714 0 18.286 8.571 18.286 18.286zM219.429 457.143v36.571c0 9.714-8.571 18.286-18.286 18.286h-36.571c-9.714 0-18.286-8.571-18.286-18.286v-36.571c0-9.714 8.571-18.286 18.286-18.286h36.571c9.714 0 18.286 8.571 18.286 18.286zM658.286 749.714v36.571c0 9.714-8.571 18.286-18.286 18.286h-36.571c-9.714 0-18.286-8.571-18.286-18.286v-36.571c0-9.714 8.571-18.286 18.286-18.286h36.571c9.714 0 18.286 8.571 18.286 18.286zM512 603.429v36.571c0 9.714-8.571 18.286-18.286 18.286h-36.571c-9.714 0-18.286-8.571-18.286-18.286v-36.571c0-9.714 8.571-18.286 18.286-18.286h36.571c9.714 0 18.286 8.571 18.286 18.286zM365.714 457.143v36.571c0 9.714-8.571 18.286-18.286 18.286h-36.571c-9.714 0-18.286-8.571-18.286-18.286v-36.571c0-9.714 8.571-18.286 18.286-18.286h36.571c9.714 0 18.286 8.571 18.286 18.286zM658.286 603.429v36.571c0 9.714-8.571 18.286-18.286 18.286h-36.571c-9.714 0-18.286-8.571-18.286-18.286v-36.571c0-9.714 8.571-18.286 18.286-18.286h36.571c9.714 0 18.286 8.571 18.286 18.286zM512 457.143v36.571c0 9.714-8.571 18.286-18.286 18.286h-36.571c-9.714 0-18.286-8.571-18.286-18.286v-36.571c0-9.714 8.571-18.286 18.286-18.286h36.571c9.714 0 18.286 8.571 18.286 18.286zM658.286 457.143v36.571c0 9.714-8.571 18.286-18.286 18.286h-36.571c-9.714 0-18.286-8.571-18.286-18.286v-36.571c0-9.714 8.571-18.286 18.286-18.286h36.571c9.714 0 18.286 8.571 18.286 18.286zM512 950.857h219.429v-658.286h-146.286v18.286c0 30.286-24.571 54.857-54.857 54.857h-256c-30.286 0-54.857-24.571-54.857-54.857v-18.286h-146.286v658.286h219.429v-128c0-9.714 8.571-18.286 18.286-18.286h182.857c9.714 0 18.286 8.571 18.286 18.286v128zM512 274.286v-182.857c0-9.714-8.571-18.286-18.286-18.286h-36.571c-9.714 0-18.286 8.571-18.286 18.286v54.857h-73.143v-54.857c0-9.714-8.571-18.286-18.286-18.286h-36.571c-9.714 0-18.286 8.571-18.286 18.286v182.857c0 9.714 8.571 18.286 18.286 18.286h36.571c9.714 0 18.286-8.571 18.286-18.286v-54.857h73.143v54.857c0 9.714 8.571 18.286 18.286 18.286h36.571c9.714 0 18.286-8.571 18.286-18.286zM804.571 256v731.429c0 20-16.571 36.571-36.571 36.571h-731.429c-20 0-36.571-16.571-36.571-36.571v-731.429c0-20 16.571-36.571 36.571-36.571h182.857v-164.571c0-30.286 24.571-54.857 54.857-54.857h256c30.286 0 54.857 24.571 54.857 54.857v164.571h182.857c20 0 36.571 16.571 36.571 36.571z"
        ],
        "width": 804.5714285714286,
        "attrs": [],
        "isMulticolor": false,
        "isMulticolor2": false,
        "tags": [
          "hospital-o"
        ],
        "defaultCode": 61688,
        "grid": 14
      },
      "attrs": [],
      "properties": {
        "name": "hospital",
        "id": 222,
        "order": 118,
        "prevSize": 28,
        "code": 61688
      },
      "setIdx": 11,
      "setId": 3,
      "iconIdx": 222
    },
    {
      "icon": {
        "paths": [
          "M358.286 310.857c0 4.571-2.286 9.714-5.714 13.143l-224.571 224.571 224.571 224.571c3.429 3.429 5.714 8.571 5.714 13.143s-2.286 9.714-5.714 13.143l-28.571 28.571c-3.429 3.429-8.571 5.714-13.143 5.714s-9.714-2.286-13.143-5.714l-266.286-266.286c-3.429-3.429-5.714-8.571-5.714-13.143s2.286-9.714 5.714-13.143l266.286-266.286c3.429-3.429 8.571-5.714 13.143-5.714s9.714 2.286 13.143 5.714l28.571 28.571c3.429 3.429 5.714 8 5.714 13.143z"
        ],
        "width": 384,
        "attrs": [],
        "isMulticolor": false,
        "isMulticolor2": false,
        "tags": [
          "angle-left"
        ],
        "defaultCode": 61700,
        "grid": 14
      },
      "attrs": [],
      "properties": {
        "name": "angle-left",
        "id": 233,
        "order": 33,
        "prevSize": 28,
        "code": 61700
      },
      "setIdx": 11,
      "setId": 3,
      "iconIdx": 233
    },
    {
      "icon": {
        "paths": [
          "M340 548.571c0 4.571-2.286 9.714-5.714 13.143l-266.286 266.286c-3.429 3.429-8.571 5.714-13.143 5.714s-9.714-2.286-13.143-5.714l-28.571-28.571c-3.429-3.429-5.714-8-5.714-13.143 0-4.571 2.286-9.714 5.714-13.143l224.571-224.571-224.571-224.571c-3.429-3.429-5.714-8.571-5.714-13.143s2.286-9.714 5.714-13.143l28.571-28.571c3.429-3.429 8.571-5.714 13.143-5.714s9.714 2.286 13.143 5.714l266.286 266.286c3.429 3.429 5.714 8.571 5.714 13.143z"
        ],
        "width": 347.4285714285714,
        "attrs": [],
        "isMulticolor": false,
        "isMulticolor2": false,
        "tags": [
          "angle-right"
        ],
        "defaultCode": 61701,
        "grid": 14
      },
      "attrs": [],
      "properties": {
        "name": "angle-right",
        "id": 234,
        "order": 34,
        "prevSize": 28,
        "code": 61701
      },
      "setIdx": 11,
      "setId": 3,
      "iconIdx": 234
    },
    {
      "icon": {
        "paths": [
          "M614.286 676.571c0 4.571-2.286 9.714-5.714 13.143l-28.571 28.571c-3.429 3.429-8 5.714-13.143 5.714-4.571 0-9.714-2.286-13.143-5.714l-224.571-224.571-224.571 224.571c-3.429 3.429-8.571 5.714-13.143 5.714s-9.714-2.286-13.143-5.714l-28.571-28.571c-3.429-3.429-5.714-8.571-5.714-13.143s2.286-9.714 5.714-13.143l266.286-266.286c3.429-3.429 8.571-5.714 13.143-5.714s9.714 2.286 13.143 5.714l266.286 266.286c3.429 3.429 5.714 8.571 5.714 13.143z"
        ],
        "width": 658.2857142857142,
        "attrs": [],
        "isMulticolor": false,
        "isMulticolor2": false,
        "tags": [
          "angle-up"
        ],
        "defaultCode": 61702,
        "grid": 14
      },
      "attrs": [],
      "properties": {
        "name": "angle-up",
        "id": 235,
        "order": 35,
        "prevSize": 28,
        "code": 61702
      },
      "setIdx": 11,
      "setId": 3,
      "iconIdx": 235
    },
    {
      "icon": {
        "paths": [
          "M614.286 420.571c0 4.571-2.286 9.714-5.714 13.143l-266.286 266.286c-3.429 3.429-8.571 5.714-13.143 5.714s-9.714-2.286-13.143-5.714l-266.286-266.286c-3.429-3.429-5.714-8.571-5.714-13.143s2.286-9.714 5.714-13.143l28.571-28.571c3.429-3.429 8-5.714 13.143-5.714 4.571 0 9.714 2.286 13.143 5.714l224.571 224.571 224.571-224.571c3.429-3.429 8.571-5.714 13.143-5.714s9.714 2.286 13.143 5.714l28.571 28.571c3.429 3.429 5.714 8.571 5.714 13.143z"
        ],
        "width": 658.2857142857142,
        "attrs": [],
        "isMulticolor": false,
        "isMulticolor2": false,
        "tags": [
          "angle-down"
        ],
        "defaultCode": 61703,
        "grid": 14
      },
      "attrs": [],
      "properties": {
        "name": "angle-down",
        "id": 236,
        "order": 36,
        "prevSize": 28,
        "code": 61703
      },
      "setIdx": 11,
      "setId": 3,
      "iconIdx": 236
    },
    {
      "icon": {
        "paths": [
          "M438.857 201.143c-171.429 0-310.857 139.429-310.857 310.857s139.429 310.857 310.857 310.857 310.857-139.429 310.857-310.857-139.429-310.857-310.857-310.857zM877.714 512c0 242.286-196.571 438.857-438.857 438.857s-438.857-196.571-438.857-438.857 196.571-438.857 438.857-438.857v0c242.286 0 438.857 196.571 438.857 438.857z"
        ],
        "width": 877.7142857142857,
        "attrs": [],
        "isMulticolor": false,
        "isMulticolor2": false,
        "tags": [
          "circle-o"
        ],
        "defaultCode": 61708,
        "grid": 14
      },
      "attrs": [],
      "properties": {
        "name": "circle-o",
        "id": 241,
        "order": 90,
        "prevSize": 28,
        "code": 61708
      },
      "setIdx": 11,
      "setId": 3,
      "iconIdx": 241
    },
    {
      "icon": {
        "paths": [
          "M877.714 512c0 242.286-196.571 438.857-438.857 438.857s-438.857-196.571-438.857-438.857 196.571-438.857 438.857-438.857 438.857 196.571 438.857 438.857z"
        ],
        "width": 877.7142857142857,
        "attrs": [],
        "isMulticolor": false,
        "isMulticolor2": false,
        "tags": [
          "circle"
        ],
        "defaultCode": 61713,
        "grid": 14
      },
      "attrs": [],
      "properties": {
        "name": "circle",
        "id": 245,
        "order": 89,
        "prevSize": 28,
        "code": 61713
      },
      "setIdx": 11,
      "setId": 3,
      "iconIdx": 245
    },
    {
      "icon": {
        "paths": [
          "M437.143 742.286c2.857 6.857 1.714 14.286-2.857 20l-200 219.429c-3.429 3.429-8 5.714-13.143 5.714v0c-5.143 0-10.286-2.286-13.714-5.714l-202.857-219.429c-4.571-5.714-5.714-13.143-2.857-20 2.857-6.286 9.143-10.857 16.571-10.857h128v-713.143c0-10.286 8-18.286 18.286-18.286h109.714c10.286 0 18.286 8 18.286 18.286v713.143h128c7.429 0 13.714 4 16.571 10.857z"
        ],
        "width": 438.85714285714283,
        "attrs": [],
        "isMulticolor": false,
        "isMulticolor2": false,
        "tags": [
          "long-arrow-down"
        ],
        "defaultCode": 61813,
        "grid": 14
      },
      "attrs": [],
      "properties": {
        "name": "long-arrow-down",
        "id": 336,
        "order": 49,
        "prevSize": 28,
        "code": 61813
      },
      "setIdx": 11,
      "setId": 3,
      "iconIdx": 336
    },
    {
      "icon": {
        "paths": [
          "M437.143 281.714c-2.857 6.286-9.143 10.857-16.571 10.857h-128v713.143c0 10.286-8 18.286-18.286 18.286h-109.714c-10.286 0-18.286-8-18.286-18.286v-713.143h-128c-7.429 0-13.714-4-16.571-10.857s-1.714-14.286 2.857-20l200-219.429c3.429-3.429 8-5.714 13.143-5.714v0c5.143 0 10.286 2.286 13.714 5.714l202.857 219.429c4.571 5.714 5.714 13.143 2.857 20z"
        ],
        "width": 438.85714285714283,
        "attrs": [],
        "isMulticolor": false,
        "isMulticolor2": false,
        "tags": [
          "long-arrow-up"
        ],
        "defaultCode": 61814,
        "grid": 14
      },
      "attrs": [],
      "properties": {
        "name": "long-arrow-up",
        "id": 337,
        "order": 48,
        "prevSize": 28,
        "code": 61814
      },
      "setIdx": 11,
      "setId": 3,
      "iconIdx": 337
    },
    {
      "icon": {
        "paths": [
          "M1024 457.143v109.714c0 10.286-8 18.286-18.286 18.286h-713.143v128c0 7.429-4 13.714-10.857 16.571s-14.286 1.714-20-2.857l-219.429-200c-3.429-3.429-5.714-8-5.714-13.143v0c0-5.143 2.286-10.286 5.714-13.714l219.429-202.286c5.714-5.143 13.143-6.286 20-3.429 6.286 2.857 10.857 9.143 10.857 16.571v128h713.143c10.286 0 18.286 8 18.286 18.286z"
        ],
        "width": 1060.5714285714284,
        "attrs": [],
        "isMulticolor": false,
        "isMulticolor2": false,
        "tags": [
          "long-arrow-left"
        ],
        "defaultCode": 61815,
        "grid": 14
      },
      "attrs": [],
      "properties": {
        "name": "long-arrow-left",
        "id": 338,
        "order": 47,
        "prevSize": 28,
        "code": 61815
      },
      "setIdx": 11,
      "setId": 3,
      "iconIdx": 338
    },
    {
      "icon": {
        "paths": [
          "M987.429 510.286c0 5.143-2.286 10.286-5.714 13.714l-219.429 202.286c-5.714 5.143-13.143 6.286-20 3.429-6.286-2.857-10.857-9.143-10.857-16.571v-128h-713.143c-10.286 0-18.286-8-18.286-18.286v-109.714c0-10.286 8-18.286 18.286-18.286h713.143v-128c0-7.429 4-13.714 10.857-16.571s14.286-1.714 20 2.857l219.429 200c3.429 3.429 5.714 8 5.714 13.143v0z"
        ],
        "width": 987.4285714285713,
        "attrs": [],
        "isMulticolor": false,
        "isMulticolor2": false,
        "tags": [
          "long-arrow-right"
        ],
        "defaultCode": 61816,
        "grid": 14
      },
      "attrs": [],
      "properties": {
        "name": "long-arrow-right",
        "id": 339,
        "order": 46,
        "prevSize": 28,
        "code": 61816
      },
      "setIdx": 11,
      "setId": 3,
      "iconIdx": 339
    },
    {
      "icon": {
        "paths": [
          "M838.857 217.143c21.143 21.143 38.857 63.429 38.857 93.714v658.286c0 30.286-24.571 54.857-54.857 54.857h-768c-30.286 0-54.857-24.571-54.857-54.857v-914.286c0-30.286 24.571-54.857 54.857-54.857h512c30.286 0 72.571 17.714 93.714 38.857zM585.143 77.714v214.857h214.857c-3.429-9.714-8.571-19.429-12.571-23.429l-178.857-178.857c-4-4-13.714-9.143-23.429-12.571zM804.571 950.857v-585.143h-237.714c-30.286 0-54.857-24.571-54.857-54.857v-237.714h-438.857v877.714h731.429zM510.857 612c14.286 11.429 30.286 21.714 48 32 24-2.857 46.286-4 66.857-4 38.286 0 86.857 4.571 101.143 28 4 5.714 7.429 16 1.143 29.714-0.571 0.571-1.143 1.714-1.714 2.286v0.571c-1.714 10.286-10.286 21.714-40.571 21.714-36.571 0-92-16.571-140-41.714-79.429 8.571-162.857 26.286-224 47.429-58.857 100.571-104 149.714-138.286 149.714-5.714 0-10.857-1.143-16-4l-13.714-6.857c-1.714-0.571-2.286-1.714-3.429-2.857-2.857-2.857-5.143-9.143-3.429-20.571 5.714-26.286 36.571-70.286 107.429-107.429 4.571-2.857 10.286-1.143 13.143 3.429 0.571 0.571 1.143 1.714 1.143 2.286 17.714-29.143 38.286-66.286 61.143-112.571 25.714-51.429 45.714-101.714 59.429-149.714-18.286-62.286-24-126.286-13.714-164 4-14.286 12.571-22.857 24-22.857h12.571c8.571 0 15.429 2.857 20 8.571 6.857 8 8.571 20.571 5.143 38.857-0.571 1.714-1.143 3.429-2.286 4.571 0.571 1.714 0.571 2.857 0.571 4.571v17.143c-0.571 36-1.143 70.286-8 109.714 20 60 49.714 108.571 83.429 136zM181.714 846.857c17.143-8 41.714-32.571 78.286-90.286-42.857 33.143-69.714 70.857-78.286 90.286zM409.143 321.143c-5.714 16-5.714 43.429-1.143 75.429 1.714-9.143 2.857-17.714 4-25.143 1.143-9.714 2.857-17.714 4-24.571 0.571-1.714 1.143-2.857 2.286-4.571-0.571-0.571-0.571-1.714-1.143-2.857-0.571-10.286-4-16.571-7.429-20.571 0 1.143-0.571 1.714-0.571 2.286zM338.286 698.857c50.286-20 106.286-36 162.286-46.286-5.714-4.571-11.429-8.571-16.571-13.143-28-24.571-53.143-58.857-72.571-100.571-10.857 34.857-26.857 72-47.429 112.571-8.571 16-17.143 32-25.714 47.429zM707.429 689.714c-2.857-2.857-17.714-13.714-80-13.714 28 10.286 53.714 16 70.857 16 5.143 0 8 0 10.286-0.571 0-0.571-0.571-1.143-1.143-1.714z"
        ],
        "width": 877.7142857142857,
        "attrs": [],
        "isMulticolor": false,
        "isMulticolor2": false,
        "tags": [
          "file-pdf-o"
        ],
        "defaultCode": 61889,
        "grid": 14
      },
      "attrs": [],
      "properties": {
        "name": "file-pdf-o",
        "id": 407,
        "order": 79,
        "prevSize": 28,
        "code": 61889
      },
      "setIdx": 11,
      "setId": 3,
      "iconIdx": 407
    },
    {
      "icon": {
        "paths": [
          "M838.857 217.143c21.143 21.143 38.857 63.429 38.857 93.714v658.286c0 30.286-24.571 54.857-54.857 54.857h-768c-30.286 0-54.857-24.571-54.857-54.857v-914.286c0-30.286 24.571-54.857 54.857-54.857h512c30.286 0 72.571 17.714 93.714 38.857zM585.143 77.714v214.857h214.857c-3.429-9.714-8.571-19.429-12.571-23.429l-178.857-178.857c-4-4-13.714-9.143-23.429-12.571zM804.571 950.857v-585.143h-237.714c-30.286 0-54.857-24.571-54.857-54.857v-237.714h-438.857v877.714h731.429zM133.143 438.857v61.143h40l93.714 377.714h90.857l73.143-277.143c2.857-8.571 4.571-17.143 5.714-26.286 0.571-4.571 1.143-9.143 1.143-13.714h2.286l1.714 13.714c1.714 8 2.286 17.143 5.143 26.286l73.143 277.143h90.857l93.714-377.714h40v-61.143h-171.429v61.143h51.429l-56.571 250.286c-2.286 9.143-3.429 18.857-4 26.286l-1.143 12h-2.286c0-3.429-1.143-8-1.714-12-1.714-7.429-2.857-17.143-5.143-26.286l-82.286-311.429h-65.143l-82.286 311.429c-2.286 9.143-2.857 18.857-4.571 26.286l-2.286 12h-2.286l-1.143-12c-0.571-7.429-1.714-17.143-4-26.286l-56.571-250.286h51.429v-61.143h-171.429z"
        ],
        "width": 877.7142857142857,
        "attrs": [],
        "isMulticolor": false,
        "isMulticolor2": false,
        "tags": [
          "file-word-o"
        ],
        "defaultCode": 61890,
        "grid": 14
      },
      "attrs": [],
      "properties": {
        "name": "file-word-o",
        "id": 408,
        "order": 81,
        "prevSize": 28,
        "code": 61890
      },
      "setIdx": 11,
      "setId": 3,
      "iconIdx": 408
    },
    {
      "icon": {
        "paths": [
          "M838.857 217.143c21.143 21.143 38.857 63.429 38.857 93.714v658.286c0 30.286-24.571 54.857-54.857 54.857h-768c-30.286 0-54.857-24.571-54.857-54.857v-914.286c0-30.286 24.571-54.857 54.857-54.857h512c30.286 0 72.571 17.714 93.714 38.857zM585.143 77.714v214.857h214.857c-3.429-9.714-8.571-19.429-12.571-23.429l-178.857-178.857c-4-4-13.714-9.143-23.429-12.571zM804.571 950.857v-585.143h-237.714c-30.286 0-54.857-24.571-54.857-54.857v-237.714h-438.857v877.714h731.429zM245.143 817.143v60.571h160.571v-60.571h-42.857l58.857-92c6.857-10.857 10.286-19.429 12-19.429h1.143c0.571 2.286 1.714 4 2.857 5.714 2.286 4.571 5.714 8 9.714 13.714l61.143 92h-43.429v60.571h166.286v-60.571h-38.857l-109.714-156 111.429-161.143h38.286v-61.143h-159.429v61.143h42.286l-58.857 90.857c-6.857 10.857-12 19.429-12 18.857h-1.143c-0.571-2.286-1.714-4-2.857-5.714-2.286-4-5.143-8-9.714-13.143l-60.571-90.857h43.429v-61.143h-165.714v61.143h38.857l108 155.429-110.857 161.714h-38.857z"
        ],
        "width": 877.7142857142857,
        "attrs": [],
        "isMulticolor": false,
        "isMulticolor2": false,
        "tags": [
          "file-excel-o"
        ],
        "defaultCode": 61891,
        "grid": 14
      },
      "attrs": [],
      "properties": {
        "name": "file-excel-o",
        "id": 409,
        "order": 80,
        "prevSize": 28,
        "code": 61891
      },
      "setIdx": 11,
      "setId": 3,
      "iconIdx": 409
    },
    {
      "icon": {
        "paths": [
          "M838.857 217.143c21.143 21.143 38.857 63.429 38.857 93.714v658.286c0 30.286-24.571 54.857-54.857 54.857h-768c-30.286 0-54.857-24.571-54.857-54.857v-914.286c0-30.286 24.571-54.857 54.857-54.857h512c30.286 0 72.571 17.714 93.714 38.857zM585.143 77.714v214.857h214.857c-3.429-9.714-8.571-19.429-12.571-23.429l-178.857-178.857c-4-4-13.714-9.143-23.429-12.571zM804.571 950.857v-585.143h-237.714c-30.286 0-54.857-24.571-54.857-54.857v-237.714h-438.857v877.714h731.429zM237.714 817.143v60.571h186.857v-60.571h-53.143v-95.429h78.286c24.571 0 46.857-1.143 67.429-8.571 51.429-17.714 83.429-70.857 83.429-133.143s-30.857-110.286-78.286-130.286c-21.714-8.571-48-10.857-74.286-10.857h-210.286v61.143h52.571v317.143h-52.571zM439.429 657.143h-68v-153.143h68.571c20 0 35.429 3.429 47.429 10.286 20.571 12 32 35.429 32 65.714 0 32-11.429 56.571-35.429 68.571-12 5.714-26.857 8.571-44.571 8.571z"
        ],
        "width": 877.7142857142857,
        "attrs": [],
        "isMulticolor": false,
        "isMulticolor2": false,
        "tags": [
          "file-powerpoint-o"
        ],
        "defaultCode": 61892,
        "grid": 14
      },
      "attrs": [],
      "properties": {
        "name": "file-powerpoint-o",
        "id": 410,
        "order": 82,
        "prevSize": 28,
        "code": 61892
      },
      "setIdx": 11,
      "setId": 3,
      "iconIdx": 410
    },
    {
      "icon": {
        "paths": [
          "M838.857 217.143c21.143 21.143 38.857 63.429 38.857 93.714v658.286c0 30.286-24.571 54.857-54.857 54.857h-768c-30.286 0-54.857-24.571-54.857-54.857v-914.286c0-30.286 24.571-54.857 54.857-54.857h512c30.286 0 72.571 17.714 93.714 38.857zM585.143 77.714v214.857h214.857c-3.429-9.714-8.571-19.429-12.571-23.429l-178.857-178.857c-4-4-13.714-9.143-23.429-12.571zM804.571 950.857v-585.143h-237.714c-30.286 0-54.857-24.571-54.857-54.857v-237.714h-438.857v877.714h731.429zM731.429 694.857v182.857h-585.143v-109.714l109.714-109.714 73.143 73.143 219.429-219.429zM256 585.143c-60.571 0-109.714-49.143-109.714-109.714s49.143-109.714 109.714-109.714 109.714 49.143 109.714 109.714-49.143 109.714-109.714 109.714z"
        ],
        "width": 877.7142857142857,
        "attrs": [],
        "isMulticolor": false,
        "isMulticolor2": false,
        "tags": [
          "file-image-o",
          "file-photo-o",
          "file-picture-o"
        ],
        "defaultCode": 61893,
        "grid": 14
      },
      "attrs": [],
      "properties": {
        "name": "file-image-o, file-photo-o, file-picture-o",
        "id": 411,
        "order": 83,
        "prevSize": 28,
        "code": 61893
      },
      "setIdx": 11,
      "setId": 3,
      "iconIdx": 411
    },
    {
      "icon": {
        "paths": [
          "M365.714 219.429v-73.143h-73.143v73.143h73.143zM438.857 292.571v-73.143h-73.143v73.143h73.143zM365.714 365.714v-73.143h-73.143v73.143h73.143zM438.857 438.857v-73.143h-73.143v73.143h73.143zM838.857 217.143c21.143 21.143 38.857 63.429 38.857 93.714v658.286c0 30.286-24.571 54.857-54.857 54.857h-768c-30.286 0-54.857-24.571-54.857-54.857v-914.286c0-30.286 24.571-54.857 54.857-54.857h512c30.286 0 72.571 17.714 93.714 38.857zM585.143 77.714v214.857h214.857c-3.429-9.714-8.571-19.429-12.571-23.429l-178.857-178.857c-4-4-13.714-9.143-23.429-12.571zM804.571 950.857v-585.143h-237.714c-30.286 0-54.857-24.571-54.857-54.857v-237.714h-73.143v73.143h-73.143v-73.143h-292.571v877.714h731.429zM446.286 538.857c48.571 164 61.143 199.429 61.143 199.429 2.857 9.714 4.571 19.429 4.571 29.714 0 63.429-61.714 109.714-146.286 109.714s-146.286-46.286-146.286-109.714c0-10.286 1.714-20 4.571-29.714 0 0 12-35.429 68.571-226.286v-73.143h73.143v73.143h45.143c16.571 0 30.857 10.857 35.429 26.857zM365.714 804.571c40.571 0 73.143-16.571 73.143-36.571s-32.571-36.571-73.143-36.571-73.143 16.571-73.143 36.571 32.571 36.571 73.143 36.571z"
        ],
        "width": 877.7142857142857,
        "attrs": [],
        "isMulticolor": false,
        "isMulticolor2": false,
        "tags": [
          "file-archive-o",
          "file-zip-o"
        ],
        "defaultCode": 61894,
        "grid": 14
      },
      "attrs": [],
      "properties": {
        "name": "file-archive-o, file-zip-o",
        "id": 412,
        "order": 84,
        "prevSize": 28,
        "code": 61894
      },
      "setIdx": 11,
      "setId": 3,
      "iconIdx": 412
    },
    {
      "icon": {
        "paths": [
          "M838.857 217.143c21.143 21.143 38.857 63.429 38.857 93.714v658.286c0 30.286-24.571 54.857-54.857 54.857h-768c-30.286 0-54.857-24.571-54.857-54.857v-914.286c0-30.286 24.571-54.857 54.857-54.857h512c30.286 0 72.571 17.714 93.714 38.857zM585.143 77.714v214.857h214.857c-3.429-9.714-8.571-19.429-12.571-23.429l-178.857-178.857c-4-4-13.714-9.143-23.429-12.571zM804.571 950.857v-585.143h-237.714c-30.286 0-54.857-24.571-54.857-54.857v-237.714h-438.857v877.714h731.429zM354.286 485.714c6.857 2.857 11.429 9.714 11.429 17.143v310.857c0 7.429-4.571 14.286-11.429 17.143-2.286 0.571-4.571 1.143-6.857 1.143-4.571 0-9.143-1.714-13.143-5.143l-94.857-95.429h-74.857c-10.286 0-18.286-8-18.286-18.286v-109.714c0-10.286 8-18.286 18.286-18.286h74.857l94.857-95.429c5.714-5.143 13.143-6.857 20-4zM592.571 879.429c10.857 0 21.143-4.571 28.571-13.714 47.429-58.286 73.714-132 73.714-207.429s-26.286-149.143-73.714-207.429c-12.571-16-36-18.286-51.429-5.714-16 13.143-18.286 36-5.143 52 37.143 45.714 57.143 101.714 57.143 161.143s-20 115.429-57.143 161.143c-13.143 16-10.857 38.857 5.143 51.429 6.857 5.714 14.857 8.571 22.857 8.571zM472 794.857c9.714 0 19.429-4 26.857-11.429 32-34.286 49.714-78.286 49.714-125.143s-17.714-90.857-49.714-125.143c-13.714-14.857-37.143-15.429-52-1.714-14.286 13.714-15.429 37.143-1.143 52 18.857 20.571 29.714 46.857 29.714 74.857s-10.857 54.286-29.714 74.857c-14.286 14.857-13.143 38.286 1.143 52 7.429 6.286 16.571 9.714 25.143 9.714z"
        ],
        "width": 877.7142857142857,
        "attrs": [],
        "isMulticolor": false,
        "isMulticolor2": false,
        "tags": [
          "file-audio-o",
          "file-sound-o"
        ],
        "defaultCode": 61895,
        "grid": 14
      },
      "attrs": [],
      "properties": {
        "name": "file-audio-o, file-sound-o",
        "id": 413,
        "order": 85,
        "prevSize": 28,
        "code": 61895
      },
      "setIdx": 11,
      "setId": 3,
      "iconIdx": 413
    },
    {
      "icon": {
        "paths": [
          "M838.857 217.143c21.143 21.143 38.857 63.429 38.857 93.714v658.286c0 30.286-24.571 54.857-54.857 54.857h-768c-30.286 0-54.857-24.571-54.857-54.857v-914.286c0-30.286 24.571-54.857 54.857-54.857h512c30.286 0 72.571 17.714 93.714 38.857zM585.143 77.714v214.857h214.857c-3.429-9.714-8.571-19.429-12.571-23.429l-178.857-178.857c-4-4-13.714-9.143-23.429-12.571zM804.571 950.857v-585.143h-237.714c-30.286 0-54.857-24.571-54.857-54.857v-237.714h-438.857v877.714h731.429zM438.857 438.857c40 0 73.143 33.143 73.143 73.143v219.429c0 40-33.143 73.143-73.143 73.143h-219.429c-40 0-73.143-33.143-73.143-73.143v-219.429c0-40 33.143-73.143 73.143-73.143h219.429zM720 440c6.857 2.857 11.429 9.714 11.429 17.143v329.143c0 7.429-4.571 14.286-11.429 17.143-2.286 0.571-4.571 1.143-6.857 1.143-4.571 0-9.714-1.714-13.143-5.143l-151.429-152v-51.429l151.429-152c3.429-3.429 8.571-5.143 13.143-5.143 2.286 0 4.571 0.571 6.857 1.143z"
        ],
        "width": 877.7142857142857,
        "attrs": [],
        "isMulticolor": false,
        "isMulticolor2": false,
        "tags": [
          "file-movie-o",
          "file-video-o"
        ],
        "defaultCode": 61896,
        "grid": 14
      },
      "attrs": [],
      "properties": {
        "name": "file-movie-o, file-video-o",
        "id": 414,
        "order": 86,
        "prevSize": 28,
        "code": 61896
      },
      "setIdx": 11,
      "setId": 3,
      "iconIdx": 414
    },
    {
      "icon": {
        "paths": [
          "M555.429 442.857c0-82.286-42.857-131.429-114.857-131.429-94.857 0-196.571 94.286-196.571 246.857 0 85.143 42.286 133.714 116.571 133.714 114.857 0 194.857-131.429 194.857-249.143zM877.714 512c0 177.714-126.857 244.571-235.429 248-7.429 0-10.286 0.571-18.286 0.571-35.429 0-63.429-10.286-81.143-30.286-10.857-12.571-17.143-28.571-18.857-47.429-35.429 44.571-97.143 88-174.286 88-122.857 0-193.143-76-193.143-208.571 0-182.286 126.286-330.286 280.571-330.286 66.857 0 120.571 28.571 149.143 77.143l1.143-10.857 6.286-32c0.571-4.571 4.571-10.286 8.571-10.286h67.429c2.857 0 5.714 4 7.429 6.286 1.714 1.714 2.286 6.286 1.714 9.143l-68.571 350.857c-2.286 10.857-2.857 19.429-2.857 27.429 0 30.857 9.143 37.143 32.571 37.143 38.857-1.143 164.571-17.143 164.571-174.857 0-222.286-143.429-365.714-365.714-365.714-201.714 0-365.714 164-365.714 365.714s164 365.714 365.714 365.714c84 0 166.286-29.143 231.429-82.286 8-6.857 19.429-5.714 25.714 2.286l23.429 28c2.857 4 4.571 8.571 4 13.714-0.571 4.571-2.857 9.143-6.857 12.571-77.714 63.429-176.571 98.857-277.714 98.857-241.714 0-438.857-197.143-438.857-438.857s197.143-438.857 438.857-438.857c262.286 0 438.857 176.571 438.857 438.857z"
        ],
        "width": 877.7142857142857,
        "attrs": [],
        "isMulticolor": false,
        "isMulticolor2": false,
        "tags": [
          "at"
        ],
        "defaultCode": 61946,
        "grid": 14
      },
      "attrs": [],
      "properties": {
        "name": "at",
        "id": 461,
        "order": 132,
        "prevSize": 28
      },
      "setIdx": 11,
      "setId": 3,
      "iconIdx": 461
    },
    {
      "icon": {
        "paths": [
          "M512 192c-154.64 0-283.495 110.182-313.333 256h-49.333c-21.333 0-42.667 21.333-42.667 42.667v42.667c0 21.333 21.333 42.666 42.667 42.666h49.333c29.839 145.823 158.693 256 313.333 256s283.495-110.177 313.333-256h49.333c21.333 0 42.667-21.333 42.667-42.666v-42.667c0-21.334-21.333-42.667-42.667-42.667h-49.333c-29.838-145.818-158.693-256-313.333-256zM512 298.667c87.743 0 165.051 70.728 192 149.333h-384c26.949-78.605 104.257-149.333 192-149.333zM320 576h384c-26.949 78.605-104.257 149.334-192 149.334s-165.051-70.729-192-149.334z"
        ],
        "attrs": [
          {}
        ],
        "isMulticolor": false,
        "isMulticolor2": false,
        "grid": 0,
        "tags": [
          "if_london-underground_103245"
        ]
      },
      "attrs": [
        {}
      ],
      "properties": {
        "order": 5,
        "id": 0,
        "name": "tube-logo",
        "prevSize": 32,
        "code": 59661
      },
      "setIdx": 12,
      "setId": 2,
      "iconIdx": 0
    },
    {
      "icon": {
        "paths": [
          "M67.356 380.673c0 20.885 0 41.769 0 62.654l708.138 0 0.032 49.714 181.119-81.041-181.119-81.041-0.032 49.714z",
          "M956.644 643.327c0-20.885 0-41.769 0-62.654l-708.138-0-0.032-49.714-181.119 81.041 181.119 81.041 0.032-49.714z"
        ],
        "attrs": [
          {},
          {}
        ],
        "isMulticolor": false,
        "isMulticolor2": false,
        "grid": 0,
        "tags": [
          "connection"
        ],
        "colorPermutations": {
          "12552552551": [
            {},
            {}
          ]
        }
      },
      "attrs": [
        {},
        {}
      ],
      "properties": {
        "order": 3,
        "id": 1,
        "name": "connection",
        "prevSize": 32,
        "code": 59656
      },
      "setIdx": 13,
      "setId": 1,
      "iconIdx": 1
    },
    {
      "icon": {
        "paths": [
          "M838.33 614.4h-347.71v-64.141h257.688c10.127 0 19.13-9.002 19.13-19.13v-121.53c0-10.127-9.002-19.13-19.13-19.13h-85.521v-57.389c21.38-25.881 54.013-67.516 54.013-94.523 0-40.51-32.633-73.143-73.143-73.143s-73.143 32.633-73.143 73.143c0 27.007 32.633 69.767 54.013 94.523v76.519c0 10.127 9.002 19.13 19.13 19.13h85.521v84.396h-257.688c-10.127 0-19.13 9.002-19.13 19.13v102.4c0 10.127 9.002 19.13 19.13 19.13h347.71v90.022h-522.127v-48.387c31.508-36.009 92.273-110.277 92.273-155.288 0-60.765-49.512-111.402-111.402-111.402-60.765 0-111.402 49.512-111.402 111.402 0 45.011 60.765 119.279 92.273 155.288v67.516c0 10.127 9.002 19.13 19.13 19.13h559.262c10.127 0 19.13-9.002 19.13-19.13v-129.407c0-11.253-7.877-19.13-18.004-19.13zM643.657 214.927c13.503 0 23.631 11.253 23.631 23.631 0 13.503-11.253 23.631-23.631 23.631-13.503 0-24.756-11.253-24.756-23.631s11.253-23.631 24.756-23.631zM240.809 535.631c0-21.38 16.879-38.259 38.259-38.259s38.259 16.879 38.259 38.259c0 21.38-16.879 38.259-38.259 38.259-21.38-1.125-38.259-18.004-38.259-38.259z"
        ],
        "attrs": [
          {}
        ],
        "grid": 0,
        "tags": [
          "lines"
        ],
        "isMulticolor": false,
        "isMulticolor2": false,
        "colorPermutations": {
          "12552552551": [
            {}
          ]
        }
      },
      "attrs": [
        {}
      ],
      "properties": {
        "order": 2,
        "id": 0,
        "name": "lines",
        "prevSize": 32,
        "code": 59657
      },
      "setIdx": 13,
      "setId": 1,
      "iconIdx": 2
    },
    {
      "icon": {
        "paths": [
          "M810 554h-256v256h-84v-256h-256v-84h256v-256h84v256h256v84z"
        ],
        "attrs": [],
        "isMulticolor": false,
        "isMulticolor2": false,
        "tags": [
          "add"
        ],
        "defaultCode": 57669,
        "grid": 24
      },
      "attrs": [],
      "properties": {
        "ligatures": "add",
        "id": 12,
        "order": 37,
        "prevSize": 24,
        "code": 57669,
        "name": "add"
      },
      "setIdx": 14,
      "setId": 0,
      "iconIdx": 12
    },
    {
      "icon": {
        "paths": [
          "M896 682l-342-106v234l86 64v64l-150-42-148 42v-64l84-64v-234l-340 106v-84l340-214v-234c0-36 28-64 64-64s64 28 64 64v234l342 214v84z"
        ],
        "attrs": [],
        "isMulticolor": false,
        "isMulticolor2": false,
        "tags": [
          "flight"
        ],
        "defaultCode": 58681,
        "grid": 24
      },
      "attrs": [],
      "properties": {
        "ligatures": "airplanemode_active, flight",
        "id": 32,
        "order": 107,
        "prevSize": 24,
        "code": 58681,
        "name": "flight"
      },
      "setIdx": 14,
      "setId": 0,
      "iconIdx": 32
    },
    {
      "icon": {
        "paths": [
          "M598 554h128l-214-212-214 212h128v172h172v-172zM826 428c110 8 198 100 198 212 0 118-96 214-214 214h-554c-142 0-256-114-256-256 0-132 100-240 228-254 54-102 160-174 284-174 156 0 284 110 314 258z"
        ],
        "attrs": [],
        "isMulticolor": false,
        "isMulticolor2": false,
        "tags": [
          "cloud_upload"
        ],
        "defaultCode": 58051,
        "grid": 24
      },
      "attrs": [],
      "properties": {
        "ligatures": "backup, cloud_upload",
        "id": 70,
        "order": 38,
        "prevSize": 24,
        "code": 58051,
        "name": "upload"
      },
      "setIdx": 14,
      "setId": 0,
      "iconIdx": 70
    },
    {
      "icon": {
        "paths": [
          "M726 666l-154-154 154-154-60-60-154 154-154-154-60 60 154 154-154 154 60 60 154-154 154 154zM512 86c236 0 426 190 426 426s-190 426-426 426-426-190-426-426 190-426 426-426z"
        ],
        "attrs": [],
        "isMulticolor": false,
        "isMulticolor2": false,
        "tags": [
          "cancel"
        ],
        "defaultCode": 58825,
        "grid": 24
      },
      "attrs": [],
      "properties": {
        "ligatures": "cancel",
        "id": 135,
        "order": 131,
        "prevSize": 24,
        "name": "cancel",
        "code": 58825
      },
      "setIdx": 14,
      "setId": 0,
      "iconIdx": 135
    },
    {
      "icon": {
        "paths": [
          "M810 810v-170h86v170c0 46-40 86-86 86h-170v-86h170zM810 128c46 0 86 40 86 86v170h-86v-170h-170v-86h170zM214 214v170h-86v-170c0-46 40-86 86-86h170v86h-170zM214 640v170h170v86h-170c-46 0-86-40-86-86v-170h86zM512 342c94 0 170 76 170 170s-76 170-170 170-170-76-170-170 76-170 170-170z"
        ],
        "attrs": [],
        "isMulticolor": false,
        "isMulticolor2": false,
        "tags": [
          "center_focus_strong"
        ],
        "defaultCode": 58292,
        "grid": 24
      },
      "attrs": [],
      "properties": {
        "ligatures": "center_focus_strong",
        "id": 142,
        "order": 99,
        "prevSize": 24,
        "code": 58292,
        "name": "center"
      },
      "setIdx": 14,
      "setId": 0,
      "iconIdx": 142
    },
    {
      "icon": {
        "paths": [
          "M512 598c46 0 86-40 86-86s-40-86-86-86-86 40-86 86 40 86 86 86zM512 342c94 0 170 76 170 170s-76 170-170 170-170-76-170-170 76-170 170-170zM810 810v-170h86v170c0 46-40 86-86 86h-170v-86h170zM810 128c46 0 86 40 86 86v170h-86v-170h-170v-86h170zM214 214v170h-86v-170c0-46 40-86 86-86h170v86h-170zM214 640v170h170v86h-170c-46 0-86-40-86-86v-170h86z"
        ],
        "attrs": [],
        "isMulticolor": false,
        "isMulticolor2": false,
        "tags": [
          "center_focus_weak"
        ],
        "defaultCode": 58293,
        "grid": 24
      },
      "attrs": [],
      "properties": {
        "ligatures": "center_focus_weak",
        "id": 143,
        "order": 100,
        "prevSize": 24,
        "code": 58293,
        "name": "center-o"
      },
      "setIdx": 14,
      "setId": 0,
      "iconIdx": 143
    },
    {
      "icon": {
        "paths": [
          "M384 690l452-452 60 60-512 512-238-238 60-60z"
        ],
        "attrs": [],
        "isMulticolor": false,
        "isMulticolor2": false,
        "tags": [
          "check"
        ],
        "defaultCode": 58826,
        "grid": 24
      },
      "attrs": [],
      "properties": {
        "ligatures": "check",
        "id": 148,
        "order": 127,
        "prevSize": 24,
        "code": 58826,
        "name": "check, true"
      },
      "setIdx": 14,
      "setId": 0,
      "iconIdx": 148
    },
    {
      "icon": {
        "paths": [
          "M810 274l-238 238 238 238-60 60-238-238-238 238-60-60 238-238-238-238 60-60 238 238 238-238z"
        ],
        "attrs": [],
        "isMulticolor": false,
        "isMulticolor2": false,
        "tags": [
          "close"
        ],
        "defaultCode": 58829,
        "grid": 24
      },
      "attrs": [],
      "properties": {
        "ligatures": "clear, close",
        "id": 157,
        "order": 25,
        "prevSize": 24,
        "code": 58829,
        "name": "close, false"
      },
      "setIdx": 14,
      "setId": 0,
      "iconIdx": 157
    },
    {
      "icon": {
        "paths": [
          "M726 554h-128v-170h-172v170h-128l214 214zM826 428c110 8 198 100 198 212 0 118-96 214-214 214h-554c-142 0-256-114-256-256 0-132 100-240 228-254 54-102 160-174 284-174 156 0 284 110 314 258z"
        ],
        "attrs": [],
        "isMulticolor": false,
        "isMulticolor2": false,
        "tags": [
          "cloud_download"
        ],
        "defaultCode": 58048,
        "grid": 24
      },
      "attrs": [],
      "properties": {
        "ligatures": "cloud_download",
        "id": 163,
        "order": 39,
        "prevSize": 24,
        "code": 58048,
        "name": "download"
      },
      "setIdx": 14,
      "setId": 0,
      "iconIdx": 163
    },
    {
      "icon": {
        "paths": [
          "M86 234h852v86h-852v-86zM86 448h852v86h-852v-86zM86 662h852v84h-852v-84z"
        ],
        "attrs": [],
        "isMulticolor": false,
        "isMulticolor2": false,
        "tags": [
          "dehaze"
        ],
        "defaultCode": 58311,
        "grid": 24
      },
      "attrs": [],
      "properties": {
        "ligatures": "dehaze",
        "id": 201,
        "order": 24,
        "prevSize": 24,
        "code": 58311,
        "name": "menu"
      },
      "setIdx": 14,
      "setId": 0,
      "iconIdx": 201
    },
    {
      "icon": {
        "paths": [
          "M256 256v170l256-84 256 84v-170h-512zM168 810l-80-284c-9.564-28.693 7.98-47.327 28-54l54-18v-198c0-46 40-86 86-86h128v-128h256v128h128c46 0 86 40 86 86v198l54 18c20.040 6.68 37.574 25.277 28 54l-80 284h-2c-68 0-130-36-172-84-42 48-102 84-170 84s-128-36-170-84c-42 48-104 84-172 84h-2zM854 896h84v86h-84c-58 0-118-14-172-42-108 56-232 56-340 0-54 28-114 42-172 42h-84v-86h84c60 0 120-20 172-56 104 72 236 72 340 0 52 36 112 56 172 56z"
        ],
        "attrs": [],
        "isMulticolor": false,
        "isMulticolor2": false,
        "tags": [
          "directions_boat"
        ],
        "defaultCode": 58674,
        "grid": 24
      },
      "attrs": [],
      "properties": {
        "ligatures": "directions_boat",
        "id": 218,
        "order": 105,
        "prevSize": 24,
        "code": 58674,
        "name": "boat"
      },
      "setIdx": 14,
      "setId": 0,
      "iconIdx": 218
    },
    {
      "icon": {
        "paths": [
          "M768 470v-214h-512v214h512zM704 726c36 0 64-28 64-64s-28-64-64-64-64 28-64 64 28 64 64 64zM320 726c36 0 64-28 64-64s-28-64-64-64-64 28-64 64 28 64 64 64zM170 682v-426c0-150 154-170 342-170s342 20 342 170v426c0 38-18 72-44 96v76c0 24-18 42-42 42h-42c-24 0-44-18-44-42v-44h-340v44c0 24-20 42-44 42h-42c-24 0-42-18-42-42v-76c-26-24-44-58-44-96z"
        ],
        "attrs": [],
        "isMulticolor": false,
        "isMulticolor2": false,
        "tags": [
          "directions_bus"
        ],
        "defaultCode": 58672,
        "grid": 24
      },
      "attrs": [],
      "properties": {
        "ligatures": "directions_bus",
        "id": 219,
        "order": 101,
        "prevSize": 24,
        "code": 58672,
        "name": "bus"
      },
      "setIdx": 14,
      "setId": 0,
      "iconIdx": 219
    },
    {
      "icon": {
        "paths": [
          "M214 470h596l-64-192h-468zM746 682c36 0 64-28 64-64s-28-64-64-64-64 28-64 64 28 64 64 64zM278 682c36 0 64-28 64-64s-28-64-64-64-64 28-64 64 28 64 64 64zM808 256l88 256v342c0 24-18 42-42 42h-44c-24 0-42-18-42-42v-44h-512v44c0 24-18 42-42 42h-44c-24 0-42-18-42-42v-342l88-256c8-26 34-42 62-42h468c28 0 54 16 62 42z"
        ],
        "attrs": [],
        "isMulticolor": false,
        "isMulticolor2": false,
        "tags": [
          "directions_car"
        ],
        "defaultCode": 58673,
        "grid": 24
      },
      "attrs": [],
      "properties": {
        "ligatures": "directions_car",
        "id": 220,
        "order": 106,
        "prevSize": 24,
        "code": 58673,
        "name": "car"
      },
      "setIdx": 14,
      "setId": 0,
      "iconIdx": 220
    },
    {
      "icon": {
        "paths": [
          "M768 426v-212h-512v212h512zM512 726c46 0 86-40 86-86s-40-86-86-86-86 40-86 86 40 86 86 86zM170 662v-448c0-150 154-172 342-172s342 22 342 172v448c0 82-68 148-150 148l64 64v22h-512v-22l64-64c-82 0-150-66-150-148z"
        ],
        "attrs": [],
        "isMulticolor": false,
        "isMulticolor2": false,
        "tags": [
          "directions_railway"
        ],
        "defaultCode": 58676,
        "grid": 24
      },
      "attrs": [],
      "properties": {
        "ligatures": "directions_railway",
        "id": 221,
        "order": 102,
        "prevSize": 24,
        "code": 58676,
        "name": "railway"
      },
      "setIdx": 14,
      "setId": 0,
      "iconIdx": 221
    },
    {
      "icon": {
        "paths": [
          "M768 470v-214h-214v214h214zM704 726c36 0 64-28 64-64s-28-64-64-64-64 28-64 64 28 64 64 64zM470 470v-214h-214v214h214zM320 726c36 0 64-28 64-64s-28-64-64-64-64 28-64 64 28 64 64 64zM512 86c188 0 342 20 342 170v406c0 82-68 148-150 148l64 64v22h-512v-22l64-64c-82 0-150-66-150-148v-406c0-150 154-170 342-170z"
        ],
        "attrs": [],
        "isMulticolor": false,
        "isMulticolor2": false,
        "tags": [
          "directions_transit"
        ],
        "defaultCode": 58677,
        "grid": 24
      },
      "attrs": [],
      "properties": {
        "ligatures": "directions_subway, directions_transit",
        "id": 223,
        "order": 6,
        "prevSize": 24,
        "name": "underground",
        "code": 58677
      },
      "setIdx": 14,
      "setId": 0,
      "iconIdx": 223
    },
    {
      "icon": {
        "paths": [
          "M512 854c188 0 342-154 342-342s-154-342-342-342-342 154-342 342 154 342 342 342zM512 86c236 0 426 190 426 426s-190 426-426 426-426-190-426-426 190-426 426-426zM470 298h84v256h-84v-256zM470 640h84v86h-84v-86z"
        ],
        "attrs": [],
        "isMulticolor": false,
        "isMulticolor2": false,
        "tags": [
          "error_outline"
        ],
        "defaultCode": 57345,
        "grid": 24
      },
      "attrs": [],
      "properties": {
        "ligatures": "error_outline",
        "id": 246,
        "order": 130,
        "prevSize": 24,
        "code": 57345,
        "name": "error"
      },
      "setIdx": 14,
      "setId": 0,
      "iconIdx": 246
    },
    {
      "icon": {
        "paths": [
          "M598 616c-136.472-37.528-274.090-73.91-412-110l-68-20v-220l62 16 40 100 212 56v-352l82 22 118 384 226 60c34 10 54 46 46 80-10 34-44 52-78 44zM106 810h812v86h-812v-86z"
        ],
        "attrs": [],
        "isMulticolor": false,
        "isMulticolor2": false,
        "tags": [
          "flight_land"
        ],
        "defaultCode": 59652,
        "grid": 24
      },
      "attrs": [],
      "properties": {
        "ligatures": "flight_land",
        "id": 310,
        "order": 109,
        "prevSize": 24,
        "code": 59659,
        "name": "flight-land"
      },
      "setIdx": 14,
      "setId": 0,
      "iconIdx": 310
    },
    {
      "icon": {
        "paths": [
          "M942 412c8 34-12 68-46 78-137.558 36.442-275.002 72.998-412 110l-226 60-68 20c-37.52-63.813-74.693-127.974-112-192l62-16 84 64 212-56-176-306 82-22 294 274 228-60c34-10 70 12 78 46zM106 810h812v86h-812v-86z"
        ],
        "attrs": [],
        "isMulticolor": false,
        "isMulticolor2": false,
        "tags": [
          "flight_takeoff"
        ],
        "defaultCode": 59653,
        "grid": 24
      },
      "attrs": [],
      "properties": {
        "ligatures": "flight_takeoff",
        "id": 311,
        "order": 108,
        "prevSize": 24,
        "code": 59664,
        "name": "flight-takeoff"
      },
      "setIdx": 14,
      "setId": 0,
      "iconIdx": 311
    },
    {
      "icon": {
        "paths": [
          "M470 384v-86h84v86h-84zM512 854c188 0 342-154 342-342s-154-342-342-342-342 154-342 342 154 342 342 342zM512 86c236 0 426 190 426 426s-190 426-426 426-426-190-426-426 190-426 426-426zM470 726v-256h84v256h-84z"
        ],
        "attrs": [],
        "isMulticolor": false,
        "isMulticolor2": false,
        "tags": [
          "info_outline"
        ],
        "defaultCode": 59535,
        "grid": 24
      },
      "attrs": [],
      "properties": {
        "ligatures": "info_outline",
        "id": 401,
        "order": 128,
        "prevSize": 24,
        "code": 59535,
        "name": "info"
      },
      "setIdx": 14,
      "setId": 0,
      "iconIdx": 401
    },
    {
      "icon": {
        "paths": [
          "M854 768v-512h-684v512h684zM854 170c48 0 84 38 84 86v512c0 48-36 86-84 86h-684c-48 0-84-38-84-86v-512c0-48 36-86 84-86h684zM470 726v-44h-86v-84h170v-44h-128c-24 0-42-18-42-42v-128c0-24 18-42 42-42h44v-44h84v44h86v84h-170v44h128c24 0 42 18 42 42v128c0 24-18 42-42 42h-44v44h-84z"
        ],
        "attrs": [],
        "isMulticolor": false,
        "isMulticolor2": false,
        "tags": [
          "local_atm"
        ],
        "defaultCode": 58686,
        "grid": 24
      },
      "attrs": [],
      "properties": {
        "ligatures": "local_atm",
        "id": 447,
        "order": 119,
        "prevSize": 24,
        "code": 58686,
        "name": "atm"
      },
      "setIdx": 14,
      "setId": 0,
      "iconIdx": 447
    },
    {
      "icon": {
        "paths": [
          "M768 426c24 0 42-18 42-42s-18-42-42-42-42 18-42 42 18 42 42 42zM512 426v-212h-256v212h256zM844 308c20 20 30 46 30 76v406c0 58-48 106-106 106s-106-48-106-106v-214h-64v320h-428v-682c0-46 40-86 86-86h256c46 0 86 40 86 86v298h42c46 0 86 40 86 86v192c0 24 18 42 42 42s42-18 42-42v-308c-14 6-26 8-42 8-58 0-106-48-106-106 0-46 28-84 68-100l-90-90 46-44z"
        ],
        "attrs": [],
        "isMulticolor": false,
        "isMulticolor2": false,
        "tags": [
          "local_gas_station"
        ],
        "defaultCode": 58694,
        "grid": 24
      },
      "attrs": [],
      "properties": {
        "ligatures": "local_gas_station",
        "id": 455,
        "order": 111,
        "prevSize": 24,
        "code": 58694,
        "name": "gas-station"
      },
      "setIdx": 14,
      "setId": 0,
      "iconIdx": 455
    },
    {
      "icon": {
        "paths": [
          "M726 768c46 0 84 40 84 86s-38 84-84 84-86-38-86-84 40-86 86-86zM42 86h140l40 84h632c24 0 42 20 42 44 0 8-2 14-6 20l-152 276c-14 26-42 44-74 44h-318l-38 70-2 6c0 6 4 10 10 10h494v86h-512c-46 0-84-40-84-86 0-14 4-28 10-40l58-106-154-324h-86v-84zM298 768c46 0 86 40 86 86s-40 84-86 84-84-38-84-84 38-86 84-86z"
        ],
        "attrs": [],
        "isMulticolor": false,
        "isMulticolor2": false,
        "tags": [
          "shopping_cart"
        ],
        "defaultCode": 59596,
        "grid": 24
      },
      "attrs": [],
      "properties": {
        "ligatures": "local_grocery_store, shopping_cart",
        "id": 456,
        "order": 113,
        "prevSize": 24,
        "code": 59596,
        "name": "shopping-cart"
      },
      "setIdx": 14,
      "setId": 0,
      "iconIdx": 456
    },
    {
      "icon": {
        "paths": [
          "M768 598v-172h-170v-170h-172v170h-170v172h170v170h172v-170h170zM810 128c46 0 86 40 86 86v596c0 46-40 86-86 86h-596c-46 0-86-40-86-86v-596c0-46 40-86 86-86h596z"
        ],
        "attrs": [],
        "isMulticolor": false,
        "isMulticolor2": false,
        "tags": [
          "local_hospital"
        ],
        "defaultCode": 58696,
        "grid": 24
      },
      "attrs": [],
      "properties": {
        "ligatures": "local_hospital",
        "id": 457,
        "order": 114,
        "prevSize": 24,
        "code": 58696,
        "name": "health"
      },
      "setIdx": 14,
      "setId": 0,
      "iconIdx": 457
    },
    {
      "icon": {
        "paths": [
          "M682 598v-86h-128v-128h-84v128h-128v86h128v128h84v-128h128zM896 214v84l-86 256 86 256v86h-768v-86l86-256-86-256v-84h542l62-172 100 38-48 134h112z"
        ],
        "attrs": [],
        "isMulticolor": false,
        "isMulticolor2": false,
        "tags": [
          "local_pharmacy"
        ],
        "defaultCode": 58704,
        "grid": 24
      },
      "attrs": [],
      "properties": {
        "ligatures": "local_pharmacy",
        "id": 464,
        "order": 122,
        "prevSize": 24,
        "code": 58704,
        "name": "pharmacy"
      },
      "setIdx": 14,
      "setId": 0,
      "iconIdx": 464
    },
    {
      "icon": {
        "paths": [
          "M512 490c58 0 106-48 106-106s-48-106-106-106-106 48-106 106 48 106 106 106zM512 86c166 0 298 132 298 298 0 224-298 554-298 554s-298-330-298-554c0-166 132-298 298-298z"
        ],
        "attrs": [],
        "isMulticolor": false,
        "isMulticolor2": false,
        "tags": [
          "room",
          "place"
        ],
        "defaultCode": 59572,
        "grid": 24
      },
      "attrs": [],
      "properties": {
        "ligatures": "location_on, place, room",
        "id": 471,
        "order": 125,
        "prevSize": 24,
        "name": "marker",
        "code": 59572
      },
      "setIdx": 14,
      "setId": 0,
      "iconIdx": 471
    },
    {
      "icon": {
        "paths": [
          "M192 470c-36 0-64-28-64-64s28-64 64-64 64 28 64 64-28 64-64 64zM946 392c0 154-116 278-264 296v166h128v84h-682v-212h-42v-172c0-24 18-42 42-42h128c24 0 42 18 42 42v172h-42v128h342v-168c-142-24-250-146-250-294 0-166 134-300 300-300s298 134 298 300z"
        ],
        "attrs": [],
        "isMulticolor": false,
        "isMulticolor2": false,
        "tags": [
          "nature_people"
        ],
        "defaultCode": 58375,
        "grid": 24
      },
      "attrs": [],
      "properties": {
        "ligatures": "nature_people",
        "id": 512,
        "order": 123,
        "prevSize": 24,
        "code": 58375,
        "name": "nature, park"
      },
      "setIdx": 14,
      "setId": 0,
      "iconIdx": 512
    },
    {
      "icon": {
        "paths": [
          "M764 742c56-60 90-142 90-230 0-142-88-266-214-316v18c0 46-40 84-86 84h-84v86c0 24-20 42-44 42h-84v86h256c24 0 42 18 42 42v128h42c38 0 70 26 82 60zM470 850v-82c-46 0-86-40-86-86v-42l-204-204c-6 24-10 50-10 76 0 174 132 318 300 338zM512 86c236 0 426 190 426 426s-190 426-426 426-426-190-426-426 190-426 426-426z"
        ],
        "attrs": [],
        "isMulticolor": false,
        "isMulticolor2": false,
        "tags": [
          "public"
        ],
        "defaultCode": 59403,
        "grid": 24
      },
      "attrs": [],
      "properties": {
        "ligatures": "public",
        "id": 605,
        "order": 115,
        "prevSize": 24,
        "code": 59403,
        "name": "public"
      },
      "setIdx": 14,
      "setId": 0,
      "iconIdx": 605
    },
    {
      "icon": {
        "paths": [
          "M810 554h-596v-84h596v84z"
        ],
        "attrs": [],
        "isMulticolor": false,
        "isMulticolor2": false,
        "tags": [
          "remove"
        ],
        "defaultCode": 57691,
        "grid": 24
      },
      "attrs": [],
      "properties": {
        "ligatures": "remove",
        "id": 617,
        "order": 94,
        "prevSize": 24,
        "code": 57691,
        "name": "remove"
      },
      "setIdx": 14,
      "setId": 0,
      "iconIdx": 617
    },
    {
      "icon": {
        "paths": [
          "M554 598v-172h-84v172h84zM554 768v-86h-84v86h84zM42 896l470-810 470 810h-940z"
        ],
        "attrs": [],
        "isMulticolor": false,
        "isMulticolor2": false,
        "tags": [
          "warning"
        ],
        "defaultCode": 57346,
        "grid": 24
      },
      "attrs": [],
      "properties": {
        "ligatures": "report_problem, warning",
        "id": 632,
        "order": 129,
        "prevSize": 24,
        "code": 57346,
        "name": "warning"
      },
      "setIdx": 14,
      "setId": 0,
      "iconIdx": 632
    },
    {
      "icon": {
        "paths": [
          "M682 256c0-76 96-170 214-170v852h-106v-340h-108v-342zM470 384v-298h84v298c0 90-70 164-160 170v384h-106v-384c-90-6-160-80-160-170v-298h86v298h84v-298h86v298h86z"
        ],
        "attrs": [],
        "isMulticolor": false,
        "isMulticolor2": false,
        "tags": [
          "restaurant"
        ],
        "defaultCode": 58732,
        "grid": 24
      },
      "attrs": [],
      "properties": {
        "ligatures": "restaurant",
        "id": 633,
        "order": 116,
        "prevSize": 24,
        "code": 58732,
        "name": "restaurant"
      },
      "setIdx": 14,
      "setId": 0,
      "iconIdx": 633
    },
    {
      "icon": {
        "paths": [
          "M512 128l470 256v342h-86v-296l-384 210-470-256zM214 562l298 164 298-164v172l-298 162-298-162v-172z"
        ],
        "attrs": [],
        "isMulticolor": false,
        "isMulticolor2": false,
        "tags": [
          "school"
        ],
        "defaultCode": 59404,
        "grid": 24
      },
      "attrs": [],
      "properties": {
        "ligatures": "school",
        "id": 648,
        "order": 117,
        "prevSize": 24,
        "code": 59404,
        "name": "school"
      },
      "setIdx": 14,
      "setId": 0,
      "iconIdx": 648
    },
    {
      "icon": {
        "paths": [
          "M406 598c106 0 192-86 192-192s-86-192-192-192-192 86-192 192 86 192 192 192zM662 598l212 212-64 64-212-212v-34l-12-12c-48 42-112 66-180 66-154 0-278-122-278-276s124-278 278-278 276 124 276 278c0 68-24 132-66 180l12 12h34z"
        ],
        "attrs": [],
        "isMulticolor": false,
        "isMulticolor2": false,
        "tags": [
          "search"
        ],
        "defaultCode": 59574,
        "grid": 24
      },
      "attrs": [],
      "properties": {
        "ligatures": "search",
        "id": 655,
        "order": 20,
        "prevSize": 24,
        "code": 59574,
        "name": "search"
      },
      "setIdx": 14,
      "setId": 0,
      "iconIdx": 655
    },
    {
      "icon": {
        "paths": [
          "M512 662c82 0 150-68 150-150s-68-150-150-150-150 68-150 150 68 150 150 150zM830 554l90 70c8 6 10 18 4 28l-86 148c-6 10-16 12-26 8l-106-42c-22 16-46 32-72 42l-16 112c-2 10-10 18-20 18h-172c-10 0-18-8-20-18l-16-112c-26-10-50-24-72-42l-106 42c-10 4-20 2-26-8l-86-148c-6-10-4-22 4-28l90-70c-2-14-2-28-2-42s0-28 2-42l-90-70c-8-6-10-18-4-28l86-148c6-10 16-12 26-8l106 42c22-16 46-32 72-42l16-112c2-10 10-18 20-18h172c10 0 18 8 20 18l16 112c26 10 50 24 72 42l106-42c10-4 20-2 26 8l86 148c6 10 4 22-4 28l-90 70c2 14 2 28 2 42s0 28-2 42z"
        ],
        "attrs": [],
        "isMulticolor": false,
        "isMulticolor2": false,
        "tags": [
          "settings"
        ],
        "defaultCode": 59576,
        "grid": 24
      },
      "attrs": [],
      "properties": {
        "ligatures": "settings",
        "id": 664,
        "order": 76,
        "prevSize": 24,
        "code": 59576,
        "name": "settings"
      },
      "setIdx": 14,
      "setId": 0,
      "iconIdx": 664
    },
    {
      "icon": {
        "paths": [
          "M768 686c68 0 124 56 124 124s-56 126-124 126-124-58-124-126c0-10 0-20 2-28l-302-176c-24 22-54 34-88 34-70 0-128-58-128-128s58-128 128-128c34 0 64 12 88 34l300-174c-2-10-4-20-4-30 0-70 58-128 128-128s128 58 128 128-58 128-128 128c-34 0-64-14-88-36l-300 176c2 10 4 20 4 30s-2 20-4 30l304 176c22-20 52-32 84-32z"
        ],
        "attrs": [],
        "isMulticolor": false,
        "isMulticolor2": false,
        "tags": [
          "share"
        ],
        "defaultCode": 59405,
        "grid": 24
      },
      "attrs": [],
      "properties": {
        "ligatures": "share",
        "id": 681,
        "order": 8,
        "prevSize": 24,
        "code": 59405,
        "name": "share"
      },
      "setIdx": 14,
      "setId": 0,
      "iconIdx": 681
    },
    {
      "icon": {
        "paths": [
          "M512 726c46 0 86-40 86-86s-40-86-86-86-86 40-86 86 40 86 86 86zM384 384h256l-128-188zM734 384h204c24 0 44 18 44 42-34.625 138.041-73.705 271.628-110 408-10 36-42 62-82 62h-556c-40 0-72-26-82-62l-108-396c-2-4-2-8-2-12 0-24 20-42 44-42h204l186-280c8-12 22-18 36-18s28 6 36 18z"
        ],
        "attrs": [],
        "isMulticolor": false,
        "isMulticolor2": false,
        "tags": [
          "shopping_basket"
        ],
        "defaultCode": 59595,
        "grid": 24
      },
      "attrs": [],
      "properties": {
        "ligatures": "shopping_basket",
        "id": 684,
        "order": 120,
        "prevSize": 24,
        "code": 59595,
        "name": "shopping-basket"
      },
      "setIdx": 14,
      "setId": 0,
      "iconIdx": 684
    },
    {
      "icon": {
        "paths": [
          "M512 768v-170h-256v170h256zM896 598h-42v256h-86v-256h-170v256h-428v-256h-42v-86l42-214h684l42 214v86zM854 170v86h-684v-86h684z"
        ],
        "attrs": [],
        "isMulticolor": false,
        "isMulticolor2": false,
        "tags": [
          "store_mall_directory"
        ],
        "defaultCode": 58723,
        "grid": 24
      },
      "attrs": [],
      "properties": {
        "ligatures": "store, store_mall_directory",
        "id": 723,
        "order": 121,
        "prevSize": 24,
        "code": 58723,
        "name": "store-mall"
      },
      "setIdx": 14,
      "setId": 0,
      "iconIdx": 723
    },
    {
      "icon": {
        "paths": [
          "M704 726c36 0 64-28 64-64s-28-64-64-64-64 28-64 64 28 64 64 64zM554 426h214v-170h-214v170zM470 426v-170h-214v170h214zM320 726c36 0 64-28 64-64s-28-64-64-64-64 28-64 64 28 64 64 64zM512 86c188 0 342 20 342 170v406c0 82-68 148-150 148l64 64v22h-86l-84-86h-162l-84 86h-96v-22l64-64c-82 0-150-66-150-148v-406c0-150 172-170 342-170z"
        ],
        "attrs": [],
        "isMulticolor": false,
        "isMulticolor2": false,
        "tags": [
          "train"
        ],
        "defaultCode": 58736,
        "grid": 24
      },
      "attrs": [],
      "properties": {
        "ligatures": "train",
        "id": 773,
        "order": 103,
        "prevSize": 24,
        "code": 58736,
        "name": "train"
      },
      "setIdx": 14,
      "setId": 0,
      "iconIdx": 773
    },
    {
      "icon": {
        "paths": [
          "M726 598v-214h-428v214h428zM512 790c36 0 64-28 64-64s-28-64-64-64-64 28-64 64 28 64 64 64zM810 722c0 72-38 132-110 132h4l64 64v20h-86l-84-84h-162l-84 84h-96v-20l68-68c-60-14-110-66-110-128v-360c0-118 120-144 254-148l34-64h-204v-64h428v64h-140l-32 64c146 4 256 28 256 148v360z"
        ],
        "attrs": [],
        "isMulticolor": false,
        "isMulticolor2": false,
        "tags": [
          "tram"
        ],
        "defaultCode": 58737,
        "grid": 24
      },
      "attrs": [],
      "properties": {
        "ligatures": "tram",
        "id": 774,
        "order": 104,
        "prevSize": 24,
        "code": 58737,
        "name": "tram"
      },
      "setIdx": 14,
      "setId": 0,
      "iconIdx": 774
    },
    {
      "icon": {
        "paths": [
          "M512 426h-86v86h-42v-86h-86v-42h86v-86h42v86h86v42zM406 598c106 0 192-86 192-192s-86-192-192-192-192 86-192 192 86 192 192 192zM662 598l212 212-64 64-212-212v-34l-12-12c-48 42-112 66-180 66-154 0-278-122-278-276s124-278 278-278 276 124 276 278c0 68-24 132-66 180l12 12h34z"
        ],
        "attrs": [],
        "isMulticolor": false,
        "isMulticolor2": false,
        "tags": [
          "zoom_in"
        ],
        "defaultCode": 59647,
        "grid": 24
      },
      "attrs": [],
      "properties": {
        "ligatures": "zoom_in",
        "id": 842,
        "order": 95,
        "prevSize": 24,
        "code": 59647,
        "name": "zoom-in"
      },
      "setIdx": 14,
      "setId": 0,
      "iconIdx": 842
    },
    {
      "icon": {
        "paths": [
          "M298 384h214v42h-214v-42zM406 598c106 0 192-86 192-192s-86-192-192-192-192 86-192 192 86 192 192 192zM662 598l212 212-64 64-212-212v-34l-12-12c-48 42-112 66-180 66-154 0-278-122-278-276s124-278 278-278 276 124 276 278c0 68-24 132-66 180l12 12h34z"
        ],
        "attrs": [],
        "isMulticolor": false,
        "isMulticolor2": false,
        "tags": [
          "zoom_out"
        ],
        "defaultCode": 59648,
        "grid": 24
      },
      "attrs": [],
      "properties": {
        "ligatures": "zoom_out",
        "id": 843,
        "order": 96,
        "prevSize": 24,
        "code": 59660,
        "name": "zoom-out"
      },
      "setIdx": 14,
      "setId": 0,
      "iconIdx": 843
    }
  ],
  "height": 1024,
  "preferences": {
    "showGlyphs": true,
    "showCodes": false,
    "showQuickUse": true,
    "showQuickUse2": false,
    "showSVGs": true,
    "fontPref": {
      "prefix": "icon-",
      "metadata": {
        "fontFamily": "icomoon",
        "majorVersion": 1,
        "minorVersion": 0
      },
      "metrics": {
        "emSize": 1024,
        "baseline": 6.25,
        "whitespace": 50
      },
      "embed": false,
      "noie8": true,
      "ie7": false,
      "showSelector": false,
      "showMetrics": false,
      "showMetadata": false
    },
    "imagePref": {
      "prefix": "icon-",
      "png": false,
      "useClassSelector": true,
      "color": 0,
      "bgColor": 16777215,
      "name": "react-tube-kit",
      "classSelector": ".icon",
      "height": 32,
      "columns": 16,
      "margin": 16
    },
    "historySize": 50,
    "gridSize": 16,
    "showGrid": false,
    "showLiga": true
  }
}