[
  {
    "name": "Spain",
    "icon": "shopping-cart",
    "url": "spain",
    "children": [{ "name": "Madrid" }, { "name": "Barcelona" }, { "name": "Zaragoza" }]
  },
  { "name": "Germany", "icon": "marker" },
  {
    "name": "United Kingdom",
    "icon": "user",
    "url": "layout",
    "children": [
      { "name": "London", "url": "playground" },
      { "name": "Birmingham" },
      { "name": "Manchester" },
      { "name": "Liverpool" }
    ]
  },
  { "name": "France", "icon": "city" }
]
