{
  "name": "Place Selector",
  "component": "PlaceSelector",
  "description": "Place Selector allows user to select a place by using Google Maps Places autosugest.",
  "created": "0.1.1",
  "lastModified": "0.1.1",
  "dependencies": ["Input", "Map"],
  "libraryDependencies": [],
  "properties": {
    "enableChangePlace": {
      "type": "bool",
      "default": false,
      "description": "Mock description for enableChangePlace"
    },
    "enableModal": {
      "type": "bool",
      "default": false,
      "description": "Mock description for enableModal"
    },
    "iconColor": {
      "type": "string",
      "default": "secondary",
      "description": "Color of the icon"
    },
    "inputClearable": {
      "type": "bool",
      "default": false,
      "description": "If set to true a close icon is shown when text is typed"
    },
    "mapBorderColor": {
      "type": "string",
      "default": "light",
      "description": "Border color of map"
    },
    "location": {
      "type": {
        "lat": "number",
        "lng": "number"
      },
      "default": null,
      "description": "Mock description for location"
    },
    "radius": {
      "type": "string",
      "default": null,
      "description": "Mock description for radius"
    },
    "type": {
      "type": "string",
      "default": null,
      "description": "Types: https://developers.google.com/places/supported_types"
    },
    "usePlaceIcon": {
      "type": "bool",
      "default": false,
      "description": "If set to true it uses place icon rather than default map marker"
    }
  },
  "methods": {},
  "events": {}
}
