{
  "primary": {
    "base": "#e6c300",
    "alt": "#002c41"
  },
  "secondary": {
    "base": "#002c41",
    "alt": "#ffffff"
  },
  "alternative": {
    "base": "#6bd718",
    "alt": "#002c41"
  },
  "body": {
    "base": "#484848",
    "alt": "#ffffff"
  },
  "success": {
    "base": "#28a745",
    "alt": "#ffffff"
  },
  "danger": {
    "base": "#d2372c",
    "alt": "#ffffff"
  },
  "warning": {
    "base": "#eb8c00",
    "alt": "#000000"
  },
  "light": {
    "base": "#e2e6ea",
    "alt": "#000000"
  },
  "dark": {
    "base": "#343a40",
    "alt": "#ffffff"
  },
  "white": {
    "base": "#ffffff",
    "alt": "##343a40"
  },
  "black": {
    "base": "#000000",
    "alt": "#ffffff"
  },
  "transparent": {
    "base": "transparent",
    "alt": "inherit"
  }
}
