{
  "name": "Radio Group",
  "component": "RadioGroup",
  "description": "RadioGroup description.",
  "created": "0.1.1",
  "lastModified": "0.1.1",
  "dependencies": ["Radio"],
  "libraryDependencies": [],
  "properties": {
    "color": {
      "type": "string",
      "default": "primary",
      "description": "Background color of the radio. See colors list here"
    },
    "direction": {
      "type": ["horizontal", "vertical"],
      "default": "horizontal",
      "description": "Direction of checkbox group"
    },
    "fontColor": {
      "type": "string",
      "default": null,
      "description": "Font color. If null it matches color property"
    },
    "options": {
      "type": "array",
      "default": [],
      "description": "Each of the checkboxes to show"
    },
    "value": {
      "type": "any",
      "default": null,
      "description": "Value"
    }
  },
  "methods": {
    "onChange": {
      "type": "func",
      "default": "emptyFunc",
      "description": "Callback fired when checkbox is triggered and state changes"
    }
  },
  "events": {}
}
